<?xml version="1.0"?>
<VTKFile type="PolyData" version="0.1" byte_order="LittleEndian">
  <PolyData>
    <Piece NumberOfPoints="     19" NumberOfVerts="  0" NumberOfLines="     18"
           NumberOfStrips="  0" NumberOfPolys="      0">
      <Points>
        <DataArray type="Float32" NumberOfComponents="3" format="ascii">
                      -4.62245                       1.43158                      89.60800
                      -4.72044                       2.73736                      89.21565
                      -4.92542                       5.37589                      88.52173
                      -5.12958                       8.02758                      87.86921
                      -5.37544                      11.35072                      87.07600
                      -5.60716                      15.29869                      85.97731
                      -5.79443                      19.20915                      84.74706
                      -5.94442                      23.11908                      83.50939
                      -6.04822                      27.02781                      82.26281
                      -6.10000                      30.93561                      81.00977
                      -6.09501                      34.84316                      79.75452
                      -6.02782                      38.74937                      78.49621
                      -5.89552                      42.65344                      77.23554
                      -5.69685                      46.55437                      75.97315
                      -5.42999                      50.45074                      74.70960
                      -5.15577                      53.69302                      73.65604
                      -4.90644                      56.28070                      72.80546
                      -4.63373                      58.84790                      71.90225
                      -4.48809                      60.14228                      71.49033
        </DataArray>
      </Points>
      <PointData>
        <DataArray type="Float32" Name="TranslationalVelocity" NumberOfComponents="3" format="ascii">
                       0.29370                       1.02548                       3.29998
                       0.58352                       1.95178                       6.31032
                       1.17043                       3.59688                      12.39253
                       1.76153                       5.14622                      18.50386
                       2.50375                       7.02885                      26.16041
                       3.38839                       9.61168                      35.25295
                       4.27001                      12.48664                      44.25497
                       5.15979                      15.36930                      53.25172
                       6.06177                      18.26105                      62.24234
                       6.98108                      21.15487                      71.22842
                       7.92339                      24.03985                      80.21283
                       8.89449                      26.91642                      89.19484
                       9.90026                      29.78190                      98.17461
                      10.94631                      32.63389                     107.15214
                      12.03766                      35.46978                     116.12713
                      12.98560                      37.81919                     123.60395
                      13.76979                      39.70692                     129.57792
                      14.58247                      41.70698                     135.51172
                      14.99396                      42.61261                     138.50642
        </DataArray>
        <DataArray type="Float32" Name="RotationalVelocity" NumberOfComponents="3" format="ascii">
                       2.30554                      -0.00026                      -0.22197
                       2.30546                      -0.00033                      -0.22208
                       2.30512                      -0.00069                      -0.22234
                       2.30461                      -0.00129                      -0.22264
                       2.30388                      -0.00243                      -0.22308
                       2.30297                      -0.00460                      -0.22371
                       2.30215                      -0.00815                      -0.22449
                       2.30142                      -0.01370                      -0.22547
                       2.30077                      -0.02188                      -0.22671
                       2.30013                      -0.03324                      -0.22828
                       2.29940                      -0.04811                      -0.23026
                       2.29852                      -0.06648                      -0.23271
                       2.29743                      -0.08794                      -0.23571
                       2.29611                      -0.11150                      -0.23933
                       2.29461                      -0.13553                      -0.24364
                       2.29331                      -0.15430                      -0.24778
                       2.29233                      -0.16714                      -0.25149
                       2.29151                      -0.17677                      -0.25555
                       2.29119                      -0.17998                      -0.25772
        </DataArray>
        <DataArray type="Float32" Name="TranslationalAcceleration" NumberOfComponents="3" format="ascii">
                       0.24136                      -7.68032                       2.42731
                       0.28034                      -9.26476                       2.94357
                       0.70526                     -26.66002                       7.97769
                       0.99964                     -42.73381                      12.38815
                       1.24174                     -61.54064                      17.41494
                       1.53016                     -82.65227                      23.87255
                       1.93228                    -102.94247                      30.86142
                       2.52168                    -123.13395                      37.85236
                       3.40443                    -143.50819                      44.89159
                       4.62842                    -164.17908                      51.94910
                       6.15718                    -185.13286                      58.94771
                       7.84641                    -206.26257                      65.81745
                       9.41414                    -227.42409                      72.48217
                      10.41498                    -248.47974                      78.88700
                      10.21332                    -269.34420                      85.01602
                       8.47096                    -286.58210                      89.93868
                       5.65483                    -300.31051                      93.84582
                       1.16935                    -314.00270                      98.02983
                      -1.83954                    -320.96075                      99.93196
        </DataArray>
        <DataArray type="Float32" Name="OrientationX" NumberOfComponents="3" format="ascii">
                       0.98762                       0.10848                       0.11328
                       0.98766                       0.10792                       0.11345
                       0.98779                       0.10614                       0.11404
                       0.98797                       0.10351                       0.11494
                       0.98823                       0.09920                       0.11646
                       0.99256                       0.08355                       0.08861
                       0.99516                       0.06892                       0.07007
                       0.99702                       0.05375                       0.05541
                       0.99847                       0.03697                       0.04106
                       0.99944                       0.01885                       0.02775
                       0.99985                       0.00007                       0.01737
                       0.99977                      -0.01941                       0.00899
                       0.99924                      -0.03870                       0.00414
                       0.99839                      -0.05653                       0.00489
                       0.99728                      -0.07345                       0.00651
                       0.99624                      -0.08634                       0.00766
                       0.99543                      -0.09513                       0.00853
                       0.99480                      -0.10112                       0.01208
                       0.99459                      -0.10268                       0.01546
        </DataArray>
        <DataArray type="Float32" Name="OrientationY" NumberOfComponents="3" format="ascii">
                       0.13951                      -0.27755                      -0.95053
                       0.13954                      -0.27789                      -0.95043
                       0.13965                      -0.27878                      -0.95015
                       0.13982                      -0.27990                      -0.94979
                       0.14012                      -0.28151                      -0.94927
                       0.10909                      -0.28644                      -0.95187
                       0.08719                      -0.29008                      -0.95302
                       0.06880                      -0.29301                      -0.95363
                       0.05017                      -0.29545                      -0.95404
                       0.03210                      -0.29732                      -0.95424
                       0.01659                      -0.29858                      -0.95424
                       0.00277                      -0.29933                      -0.95415
                      -0.00766                      -0.29968                      -0.95401
                      -0.01231                      -0.29995                      -0.95387
                      -0.01588                      -0.30011                      -0.95377
                      -0.01868                      -0.30016                      -0.95371
                      -0.02051                      -0.30018                      -0.95366
                      -0.01897                      -0.30055                      -0.95358
                      -0.01625                      -0.30095                      -0.95350
        </DataArray>
        <DataArray type="Float32" Name="OrientationZ" NumberOfComponents="3" format="ascii">
                      -0.07167                       0.95457                      -0.28925
                      -0.07105                       0.95453                      -0.28952
                      -0.06905                       0.95447                      -0.29020
                      -0.06614                       0.95443                      -0.29100
                      -0.06138                       0.95442                      -0.29210
                      -0.05415                       0.95445                      -0.29343
                      -0.04535                       0.95452                      -0.29469
                      -0.03502                       0.95460                      -0.29583
                      -0.02314                       0.95464                      -0.29685
                      -0.00974                       0.95459                      -0.29775
                       0.00512                       0.95438                      -0.29854
                       0.02121                       0.95395                      -0.29920
                       0.03817                       0.95325                      -0.29975
                       0.05539                       0.95228                      -0.30017
                       0.07201                       0.95107                      -0.30046
                       0.08464                       0.94997                      -0.30064
                       0.09328                       0.94913                      -0.30076
                       0.10006                       0.94839                      -0.30091
                       0.10256                       0.94809                      -0.30099
        </DataArray>
        <DataArray type="Float32" Name="Force" NumberOfComponents="3" format="ascii">
                      -0.55797                      -1.79795                      -5.79518
                     160.03745                     -16.16735                     -92.63116
                     212.75810                     -59.11743                    -245.61380
                     200.73723                     -94.80051                    -357.99094
                    1783.85970                     214.45824                     329.19905
                    2188.09625                     200.72819                     253.19036
                    2401.12955                     166.76685                     174.71406
                    2876.48995                     140.57934                     117.13168
                    3941.88580                     114.10641                      63.77844
                    4603.11098                      45.54387                      -1.12856
                    5762.49143                     -59.29236                     -88.34554
                    6502.53262                    -195.67257                    -161.77452
                    6702.89003                    -319.56952                    -162.92084
                    6992.41074                    -464.76220                    -185.45882
                    7119.65199                    -601.24828                    -198.92494
                    7082.52132                    -696.34927                    -208.94963
                    6717.29989                    -725.92551                    -209.97830
                    4664.15459                    -538.61356                    -148.53715
                   -1163.86675                     105.44430                     -62.96675
        </DataArray>
        <DataArray type="Float32" Name="Moment" NumberOfComponents="3" format="ascii">
                       0.00000                       0.00000                       0.00000
                       0.00000                       0.00000                       0.00000
                       0.00000                       0.00000                       0.00000
                       0.00000                       0.00000                       0.00000
                      59.32741                    -925.45525                     281.40946
                      97.78565                   -1731.76747                     527.86424
                     110.03060                   -2330.68756                     712.49967
                     129.89584                   -3570.42889                    1095.21561
                     124.95850                   -5214.25922                    1605.68783
                      59.25620                   -5943.46241                    1838.24842
                     -36.31538                   -6573.23377                    2042.83625
                    -156.55290                   -7014.11589                    2191.19626
                    -217.74577                   -5437.96987                    1708.09019
                    -315.18076                   -5425.76699                    1713.68552
                    -397.82953                   -5263.87193                    1671.41534
                    -445.69261                   -5012.63560                    1598.07786
                    -437.94706                   -4465.44404                    1427.56642
                    -236.95102                   -2250.75602                     721.10916
                    -226.63329                   -2099.51705                     673.19399
        </DataArray>
      </PointData>
      <Lines>
        <DataArray type="Int32" Name="connectivity" format="ascii">
      0      1
      1      2
      2      3
      3      4
      4      5
      5      6
      6      7
      7      8
      8      9
      9     10
     10     11
     11     12
     12     13
     13     14
     14     15
     15     16
     16     17
     17     18
        </DataArray>
        <DataArray type="Int32" Name="offsets" format="ascii">
      2
      4
      6
      8
     10
     12
     14
     16
     18
     20
     22
     24
     26
     28
     30
     32
     34
     36
        </DataArray>
      </Lines>
    </Piece>
  </PolyData>
</VTKFile>
