<?xml version="1.0"?>
<VTKFile type="PolyData" version="0.1" byte_order="LittleEndian">
  <PolyData>
    <Piece NumberOfPoints="     19" NumberOfVerts="  0" NumberOfLines="     18"
           NumberOfStrips="  0" NumberOfPolys="      0">
      <Points>
        <DataArray type="Float32" NumberOfComponents="3" format="ascii">
                      -4.53257                      -0.90254                      91.23405
                      -4.48912                      -1.72731                      92.32333
                      -4.42517                      -3.45279                      94.44564
                      -4.36654                      -5.21553                      96.54035
                      -4.28673                      -7.44336                      99.14052
                      -4.10415                     -10.00899                     102.33815
                      -3.85521                     -12.47778                     105.60555
                      -3.56641                     -14.95115                     108.86665
                      -3.22919                     -17.42758                     112.12120
                      -2.83906                     -19.90818                     115.36705
                      -2.39319                     -22.39522                     118.60121
                      -1.88768                     -24.88667                     121.82370
                      -1.32168                     -27.38158                     125.03397
                      -0.69631                     -29.87892                     128.23169
                      -0.01248                     -32.37773                     131.41614
                       0.59939                     -34.46051                     134.05942
                       1.11280                     -36.12032                     136.17227
                       1.65187                     -37.73637                     138.31219
                       1.91992                     -38.57702                     139.35531
        </DataArray>
      </Points>
      <PointData>
        <DataArray type="Float32" Name="TranslationalVelocity" NumberOfComponents="3" format="ascii">
                      -0.23465                      -2.98264                      -2.23657
                      -0.42996                      -5.69334                      -4.28107
                      -0.84118                     -10.97263                      -8.56093
                      -1.26581                     -16.18637                     -12.93702
                      -1.80982                     -22.66653                     -18.47368
                      -2.44656                     -30.66615                     -24.85771
                      -3.06688                     -38.86630                     -31.00788
                      -3.69045                     -47.06921                     -37.17502
                      -4.31213                     -55.27304                     -43.35348
                      -4.92844                     -63.46976                     -49.54379
                      -5.53857                     -71.64880                     -55.74900
                      -6.14401                     -79.80791                     -61.96123
                      -6.75125                     -87.94361                     -68.17498
                      -7.37273                     -96.05380                     -74.38444
                      -8.02829                    -104.13777                     -80.58400
                      -8.62245                    -110.85557                     -85.73818
                      -9.13977                    -116.23159                     -89.83625
                      -9.68868                    -121.68430                     -93.81877
                     -10.00569                    -124.34544                     -95.88488
        </DataArray>
        <DataArray type="Float32" Name="RotationalVelocity" NumberOfComponents="3" format="ascii">
                       2.47823                      -0.00035                      -0.23566
                       2.47896                      -0.00061                      -0.23593
                       2.48067                      -0.00128                      -0.23704
                       2.48263                      -0.00200                      -0.23866
                       2.48527                      -0.00265                      -0.24109
                       2.48837                      -0.00252                      -0.24444
                       2.49098                      -0.00070                      -0.24842
                       2.49267                       0.00342                      -0.25355
                       2.49301                       0.01028                      -0.26055
                       2.49168                       0.02006                      -0.27028
                       2.48844                       0.03259                      -0.28360
                       2.48317                       0.04725                      -0.30122
                       2.47593                       0.06288                      -0.32361
                       2.46699                       0.07773                      -0.35087
                       2.45684                       0.08933                      -0.38263
                       2.44799                       0.09440                      -0.41178
                       2.44105                       0.09361                      -0.43630
                       2.43466                       0.08700                      -0.46113
                       2.43181                       0.08104                      -0.47340
        </DataArray>
        <DataArray type="Float32" Name="TranslationalAcceleration" NumberOfComponents="3" format="ascii">
                      -0.67906                       5.46925                      -7.39671
                      -0.84354                       6.70282                      -8.95121
                      -2.45160                      19.71733                     -25.25389
                      -4.02523                      32.04344                     -40.02474
                      -6.00927                      46.75968                     -57.08240
                      -8.47074                      63.00802                     -76.90943
                     -10.93689                      78.32557                     -96.68833
                     -13.23102                      93.64220                    -116.46151
                     -15.22135                     109.07408                    -136.53243
                     -16.82286                     124.63293                    -157.00470
                     -18.04630                     140.25704                    -177.82365
                     -19.04939                     155.82035                    -198.83849
                     -20.18228                     171.20782                    -219.81264
                     -22.03577                     186.35119                    -240.46578
                     -25.48826                     201.27487                    -260.50730
                     -30.51824                     213.64716                    -276.52849
                     -36.53800                     223.58297                    -288.84892
                     -45.02327                     233.46825                    -300.84415
                     -50.27868                     238.75073                    -306.50377
        </DataArray>
        <DataArray type="Float32" Name="OrientationX" NumberOfComponents="3" format="ascii">
                       0.95795                      -0.20938                      -0.19618
                       0.95792                      -0.20898                      -0.19675
                       0.95781                      -0.20773                      -0.19862
                       0.95761                      -0.20596                      -0.20141
                       0.95722                      -0.20318                      -0.20602
                       0.96517                      -0.17452                      -0.19492
                       0.96980                      -0.15229                      -0.19053
                       0.97293                      -0.13225                      -0.18952
                       0.97550                      -0.11153                      -0.18965
                       0.97732                      -0.09085                      -0.19128
                       0.97808                      -0.07188                      -0.19543
                       0.97803                      -0.05406                      -0.20133
                       0.97701                      -0.03895                      -0.20960
                       0.97483                      -0.02871                      -0.22111
                       0.97244                      -0.02007                      -0.23231
                       0.97058                      -0.01393                      -0.24036
                       0.96932                      -0.01028                      -0.24559
                       0.96791                      -0.01040                      -0.25109
                       0.96707                      -0.01250                      -0.25419
        </DataArray>
        <DataArray type="Float32" Name="OrientationY" NumberOfComponents="3" format="ascii">
                       0.28513                       0.77117                       0.56921
                       0.28514                       0.77117                       0.56920
                       0.28527                       0.77115                       0.56916
                       0.28554                       0.77112                       0.56906
                       0.28610                       0.77107                       0.56886
                       0.25659                       0.77693                       0.57492
                       0.23629                       0.78038                       0.57895
                       0.21980                       0.78279                       0.58217
                       0.20353                       0.78484                       0.58533
                       0.18825                       0.78643                       0.58830
                       0.17591                       0.78746                       0.59072
                       0.16560                       0.78813                       0.59281
                       0.15891                       0.78844                       0.59423
                       0.15805                       0.78846                       0.59443
                       0.15827                       0.78846                       0.59438
                       0.15850                       0.78845                       0.59433
                       0.15892                       0.78844                       0.59423
                       0.16238                       0.78842                       0.59332
                       0.16589                       0.78839                       0.59239
        </DataArray>
        <DataArray type="Float32" Name="OrientationZ" NumberOfComponents="3" format="ascii">
                       0.03211                      -0.60121                       0.79844
                       0.03277                      -0.60135                       0.79831
                       0.03493                      -0.60180                       0.79788
                       0.03810                      -0.60245                       0.79725
                       0.04328                      -0.60347                       0.79621
                       0.05111                      -0.60491                       0.79465
                       0.06052                      -0.60648                       0.79279
                       0.07136                      -0.60807                       0.79067
                       0.08356                      -0.60958                       0.78830
                       0.09698                      -0.61096                       0.78570
                       0.11143                      -0.61215                       0.78285
                       0.12663                      -0.61313                       0.77977
                       0.14212                      -0.61387                       0.77651
                       0.15727                      -0.61441                       0.77315
                       0.17123                      -0.61476                       0.76990
                       0.18123                      -0.61494                       0.76746
                       0.18753                      -0.61502                       0.76588
                       0.19179                      -0.61505                       0.76480
                       0.19300                      -0.61505                       0.76450
        </DataArray>
        <DataArray type="Float32" Name="Force" NumberOfComponents="3" format="ascii">
                       1.20752                      16.93058                      12.69984
                     194.54792                      92.55983                      61.71294
                     290.06304                     255.40109                     179.67124
                     295.14973                     371.36649                     265.71323
                    1661.83879                    -405.51127                    -396.21834
                    2070.60197                    -386.10118                    -424.77138
                    2297.19772                    -333.61133                    -427.61872
                    2850.63783                    -319.99671                    -499.47512
                    4070.36420                    -347.69274                    -694.55782
                    4786.67506                    -299.43267                    -816.83588
                    6125.65155                    -249.59772                   -1058.67503
                    6960.57828                    -156.64213                   -1244.10586
                    7019.76834                     -77.43438                   -1335.75813
                    7152.93151                      17.79021                   -1430.27933
                    7062.16998                     104.54786                   -1476.67510
                    6841.67801                     165.74029                   -1472.77703
                    6331.03886                     196.75948                   -1383.25887
                    4152.95341                     153.86437                    -912.28697
                   -6440.28161                    -330.21027                    1354.95079
        </DataArray>
        <DataArray type="Float32" Name="Moment" NumberOfComponents="3" format="ascii">
                       0.00000                       0.00000                       0.00000
                       0.00000                       0.00000                       0.00000
                       0.00000                       0.00000                       0.00000
                       0.00000                       0.00000                       0.00000
                     -51.17004                     708.75082                    -939.99386
                    -111.92567                    1311.35363                   -1737.56688
                    -177.64502                    1756.34860                   -2324.55570
                    -324.70100                    2720.74770                   -3596.24574
                    -557.84836                    3990.49714                   -5266.82272
                    -735.73550                    4532.97734                   -5973.10721
                    -935.30595                    5012.67197                   -6593.62849
                   -1132.01769                    5335.45345                   -7005.23547
                    -976.88964                    4098.85112                   -5371.42979
                   -1078.77313                    4085.69546                   -5344.20428
                   -1137.20579                    3950.89626                   -5158.94312
                   -1144.22891                    3752.05320                   -4893.19106
                   -1053.36711                    3335.63184                   -4346.68526
                    -541.35339                    1675.23038                   -2181.83225
                    -496.71400                    1527.22167                   -1988.76134
        </DataArray>
      </PointData>
      <Lines>
        <DataArray type="Int32" Name="connectivity" format="ascii">
      0      1
      1      2
      2      3
      3      4
      4      5
      5      6
      6      7
      7      8
      8      9
      9     10
     10     11
     11     12
     12     13
     13     14
     14     15
     15     16
     16     17
     17     18
        </DataArray>
        <DataArray type="Int32" Name="offsets" format="ascii">
      2
      4
      6
      8
     10
     12
     14
     16
     18
     20
     22
     24
     26
     28
     30
     32
     34
     36
        </DataArray>
      </Lines>
    </Piece>
  </PolyData>
</VTKFile>
