<?xml version="1.0"?>
<VTKFile type="PolyData" version="0.1" byte_order="LittleEndian">
  <PolyData>
    <Piece NumberOfPoints="     19" NumberOfVerts="  0" NumberOfLines="     18"
           NumberOfStrips="  0" NumberOfPolys="      0">
      <Points>
        <DataArray type="Float32" NumberOfComponents="3" format="ascii">
                      -4.93474                      -1.16210                      89.06998
                      -5.07445                      -2.20908                      88.20255
                      -5.37880                      -4.24109                      86.39679
                      -5.69085                      -6.24317                      84.55603
                      -6.07827                      -8.72685                      82.23161
                      -6.46073                     -11.79761                      79.53918
                      -6.78201                     -14.94878                      76.93502
                      -7.06898                     -18.09730                      74.32356
                      -7.31102                     -21.24387                      71.70518
                      -7.50085                     -24.38674                      69.07816
                      -7.63214                     -27.52306                      66.43985
                      -7.69698                     -30.65329                      63.79175
                      -7.69015                     -33.77697                      61.13481
                      -7.60811                     -36.89362                      58.47037
                      -7.44691                     -40.00251                      55.80014
                      -7.25072                     -42.58676                      53.57220
                      -7.05619                     -44.65500                      51.79536
                      -6.82705                     -46.75522                      50.06056
                      -6.70427                     -47.77645                      49.16237
        </DataArray>
      </Points>
      <PointData>
        <DataArray type="Float32" Name="TranslationalVelocity" NumberOfComponents="3" format="ascii">
                      -0.09267                       0.95411                      -1.13285
                      -0.18716                       1.82121                      -2.16424
                      -0.37027                       3.62682                      -4.16535
                      -0.55008                       5.46655                      -6.13606
                      -0.77202                       7.78732                      -8.57939
                      -1.04462                      10.46700                     -11.59794
                      -1.32240                      13.05182                     -14.69267
                      -1.59812                      15.63826                     -17.78186
                      -1.87222                      18.22519                     -20.86637
                      -2.14508                      20.81393                     -23.94469
                      -2.41701                      23.40682                     -27.01435
                      -2.68870                      26.00195                     -30.07615
                      -2.96070                      28.59823                     -33.12996
                      -3.23351                      31.19424                     -36.17562
                      -3.50749                      33.78810                     -39.21266
                      -3.73688                      35.94623                     -41.73652
                      -3.92155                      37.66362                     -43.75601
                      -4.11004                      39.33639                     -45.80636
                      -4.20200                      40.20192                     -46.80317
        </DataArray>
        <DataArray type="Float32" Name="RotationalVelocity" NumberOfComponents="3" format="ascii">
                       0.98530                       0.00039                      -0.09004
                       0.98514                       0.00035                      -0.08998
                       0.98473                       0.00025                      -0.08983
                       0.98421                       0.00010                      -0.08963
                       0.98348                      -0.00015                      -0.08937
                       0.98253                      -0.00051                      -0.08906
                       0.98159                      -0.00092                      -0.08880
                       0.98070                      -0.00133                      -0.08863
                       0.97989                      -0.00170                      -0.08855
                       0.97919                      -0.00199                      -0.08857
                       0.97858                      -0.00217                      -0.08869
                       0.97807                      -0.00222                      -0.08889
                       0.97764                      -0.00211                      -0.08915
                       0.97728                      -0.00185                      -0.08944
                       0.97698                      -0.00146                      -0.08971
                       0.97677                      -0.00107                      -0.08989
                       0.97663                      -0.00072                      -0.08999
                       0.97652                      -0.00039                      -0.09003
                       0.97648                      -0.00023                      -0.09002
        </DataArray>
        <DataArray type="Float32" Name="TranslationalAcceleration" NumberOfComponents="3" format="ascii">
                       0.62501                       1.24208                       0.87526
                       0.24095                       1.49358                       0.99921
                       0.62191                       4.22248                       2.92087
                       0.89107                       6.70239                       4.72474
                       1.12020                       9.57607                       6.85040
                       1.28830                      12.90098                       9.14359
                       1.40063                      16.19593                      11.25950
                       1.50315                      19.47491                      13.36396
                       1.61300                      22.78213                      15.48656
                       1.73152                      26.12996                      17.63877
                       1.84785                      29.50828                      19.81824
                       1.94255                      32.89660                      22.00927
                       1.99192                      36.26885                      24.19433
                       1.97186                      39.60244                      26.35875
                       1.86187                      42.88613                      28.49619
                       1.68992                      45.58882                      30.26197
                       1.49952                      47.74645                      31.66663
                       1.26174                      49.94495                      33.03949
                       1.13015                      51.03341                      33.76941
        </DataArray>
        <DataArray type="Float32" Name="OrientationX" NumberOfComponents="3" format="ascii">
                       0.94962                       0.11469                      -0.29168
                       0.94967                       0.11510                      -0.29135
                       0.94984                       0.11639                      -0.29026
                       0.95010                       0.11832                      -0.28864
                       0.95051                       0.12150                      -0.28595
                       0.96008                       0.10626                      -0.25874
                       0.96664                       0.09783                      -0.23671
                       0.97210                       0.09250                      -0.21554
                       0.97743                       0.08780                      -0.19217
                       0.98238                       0.08409                      -0.16689
                       0.98656                       0.08252                      -0.14103
                       0.99007                       0.08232                      -0.11393
                       0.99262                       0.08432                      -0.08716
                       0.99397                       0.08972                      -0.06310
                       0.99470                       0.09508                      -0.03922
                       0.99492                       0.09872                      -0.01994
                       0.99487                       0.10101                      -0.00596
                       0.99452                       0.10450                       0.00370
                       0.99423                       0.10707                       0.00614
        </DataArray>
        <DataArray type="Float32" Name="OrientationY" NumberOfComponents="3" format="ascii">
                       0.29649                      -0.63040                       0.71741
                       0.29649                      -0.63043                       0.71739
                       0.29647                      -0.63050                       0.71734
                       0.29644                      -0.63057                       0.71729
                       0.29639                      -0.63066                       0.71723
                       0.26583                      -0.63441                       0.72585
                       0.24358                      -0.63693                       0.73143
                       0.22397                      -0.63901                       0.73587
                       0.20310                      -0.64107                       0.74012
                       0.18144                      -0.64309                       0.74399
                       0.16075                      -0.64497                       0.74711
                       0.14004                      -0.64685                       0.74965
                       0.12108                      -0.64864                       0.75141
                       0.10644                      -0.65013                       0.75233
                       0.09198                      -0.65167                       0.75291
                       0.07989                      -0.65298                       0.75315
                       0.07090                      -0.65393                       0.75323
                       0.06596                      -0.65438                       0.75328
                       0.06581                      -0.65432                       0.75335
        </DataArray>
        <DataArray type="Float32" Name="OrientationZ" NumberOfComponents="3" format="ascii">
                      -0.10159                      -0.76775                      -0.63265
                      -0.10111                      -0.76766                      -0.63283
                      -0.09951                      -0.76741                      -0.63338
                      -0.09714                      -0.76706                      -0.63418
                      -0.09320                      -0.76649                      -0.63546
                      -0.08702                      -0.76566                      -0.63734
                      -0.07921                      -0.76469                      -0.63951
                      -0.06966                      -0.76362                      -0.64190
                      -0.05821                      -0.76245                      -0.64443
                      -0.04476                      -0.76116                      -0.64702
                      -0.02930                      -0.75974                      -0.64957
                      -0.01199                      -0.75816                      -0.65195
                       0.00682                      -0.75641                      -0.65406
                       0.02648                      -0.75451                      -0.65576
                       0.04603                      -0.75252                      -0.65696
                       0.06133                      -0.75092                      -0.65754
                       0.07219                      -0.74979                      -0.65773
                       0.08113                      -0.74891                      -0.65769
                       0.08468                      -0.74860                      -0.65759
        </DataArray>
        <DataArray type="Float32" Name="Force" NumberOfComponents="3" format="ascii">
                       0.42665                      -3.90318                       4.66818
                     145.66685                     -38.55744                      23.51287
                     191.00870                     -76.30681                      62.55330
                     167.56949                     -86.55303                      79.28230
                    1396.82711                     307.88724                    -578.25869
                    1668.12040                     402.23901                    -715.20756
                    2299.26095                     569.36750                    -973.98918
                    2643.56958                     576.00584                    -983.04413
                    3091.77084                     598.44166                   -1000.90127
                    3548.68385                     634.74959                   -1008.40234
                    4066.57762                     689.31712                   -1008.32639
                    4544.24391                     751.59689                    -978.13188
                    4674.86468                     791.24006                    -887.49122
                    4998.04528                     860.48208                    -809.91648
                    5253.40631                     924.19507                    -711.87189
                    5376.08103                     955.97429                    -610.21285
                    5211.25979                     923.05160                    -497.65431
                    3750.31668                     660.26813                    -300.30882
                    1546.48742                     160.93945                      16.35258
        </DataArray>
        <DataArray type="Float32" Name="Moment" NumberOfComponents="3" format="ascii">
                       0.00000                       0.00000                       0.00000
                       0.00000                       0.00000                       0.00000
                       0.00000                       0.00000                       0.00000
                       0.00000                       0.00000                       0.00000
                      50.26150                     414.91491                     342.32713
                      45.37596                     401.80332                     331.81072
                      49.51611                     482.66842                     399.04568
                      58.04490                     645.11448                     534.09143
                      63.95833                     853.87407                     708.10014
                      57.11259                     997.77915                     829.04848
                      39.16571                    1059.24270                     882.07998
                      16.12869                    1128.17259                     941.81950
                     -10.84197                    1048.34603                     877.53952
                     -37.64536                    1041.73372                     874.46053
                     -62.18594                    1005.32851                     846.26412
                     -78.34491                     954.67981                     805.39233
                     -82.23697                     852.74370                     720.51669
                     -47.33041                     436.98727                     369.70191
                     -42.42877                     375.41550                     317.77221
        </DataArray>
      </PointData>
      <Lines>
        <DataArray type="Int32" Name="connectivity" format="ascii">
      0      1
      1      2
      2      3
      3      4
      4      5
      5      6
      6      7
      7      8
      8      9
      9     10
     10     11
     11     12
     12     13
     13     14
     14     15
     15     16
     16     17
     17     18
        </DataArray>
        <DataArray type="Int32" Name="offsets" format="ascii">
      2
      4
      6
      8
     10
     12
     14
     16
     18
     20
     22
     24
     26
     28
     30
     32
     34
     36
        </DataArray>
      </Lines>
    </Piece>
  </PolyData>
</VTKFile>
