<?xml version="1.0"?>
<VTKFile type="PolyData" version="0.1" byte_order="LittleEndian">
  <PolyData>
    <Piece NumberOfPoints="     19" NumberOfVerts="  0" NumberOfLines="     18"
           NumberOfStrips="  0" NumberOfPolys="      0">
      <Points>
        <DataArray type="Float32" NumberOfComponents="3" format="ascii">
                      -4.49087                       0.46742                      91.45911
                      -4.42743                       0.90248                      92.75367
                      -4.31779                       1.68235                      95.37363
                      -4.21368                       2.42010                      98.00828
                      -4.08009                       3.31853                     101.31067
                      -3.84924                       4.53540                     105.22417
                      -3.56005                       5.87769                     109.09219
                      -3.21804                       7.22281                     112.95501
                      -2.80512                       8.57025                     116.80952
                      -2.30887                       9.91588                     120.65413
                      -1.72233                      11.25432                     124.48840
                      -1.04373                      12.58578                     128.31079
                      -0.28211                      13.91036                     132.12159
                       0.54170                      15.22981                     135.92263
                       1.39515                      16.54747                     139.71730
                       2.09191                      17.64893                     142.87916
                       2.61345                      18.54309                     145.40892
                       3.08576                      19.49644                     147.92551
                       3.28271                      19.93943                     149.20187
        </DataArray>
      </Points>
      <PointData>
        <DataArray type="Float32" Name="TranslationalVelocity" NumberOfComponents="3" format="ascii">
                       0.06359                      -3.36134                       1.12066
                       0.16426                      -6.42187                       2.14396
                       0.42226                     -12.54830                       3.95551
                       0.73003                     -18.67382                       5.65386
                       1.13342                     -26.38101                       7.72160
                       1.61444                     -35.65321                      10.55770
                       2.05343                     -45.02529                      13.75485
                       2.43301                     -54.61374                      17.03421
                       2.76751                     -64.39501                      20.39094
                       3.05547                     -74.31444                      23.80448
                       3.26030                     -84.29293                      27.24911
                       3.28412                     -94.22423                      30.71621
                       2.94914                    -103.98921                      34.20454
                       1.97771                    -113.45983                      37.72845
                      -0.02373                    -122.49251                      41.31874
                      -2.89316                    -129.58938                      44.41101
                      -6.26283                    -134.92521                      47.00282
                     -11.16021                    -139.79649                      49.87969
                     -13.86690                    -142.20471                      51.24787
        </DataArray>
        <DataArray type="Float32" Name="RotationalVelocity" NumberOfComponents="3" format="ascii">
                       2.35816                      -0.00281                      -0.22586
                       2.34600                       0.00613                      -0.22881
                       2.33685                       0.02229                      -0.22548
                       2.34253                       0.03436                      -0.21588
                       2.36186                       0.04351                      -0.19999
                       2.39550                       0.04947                      -0.16998
                       2.43704                       0.05922                      -0.10773
                       2.48823                       0.08457                       0.01779
                       2.55418                       0.13708                       0.24310
                       2.64085                       0.22504                       0.60338
                       2.75270                       0.35064                       1.12645
                       2.89028                       0.50705                       1.82671
                       3.04789                       0.67556                       2.69903
                       3.21114                       0.82273                       3.71262
                       3.35463                       0.89748                       4.80492
                       3.43371                       0.85818                       5.70696
                       3.44741                       0.71861                       6.36600
                       3.39579                       0.44722                       6.91202
                       3.33856                       0.25078                       7.12382
        </DataArray>
        <DataArray type="Float32" Name="TranslationalAcceleration" NumberOfComponents="3" format="ascii">
                      -4.45208                      -0.40921                     -10.08810
                      -1.71469                      -0.30092                     -11.17946
                      -0.70231                       1.82966                     -31.76855
                       6.29377                       4.69506                     -50.40085
                      22.07154                       6.13829                     -72.11011
                      46.41914                       1.07286                     -96.92851
                      69.77566                     -11.65164                    -120.29525
                      83.76152                     -29.48474                    -142.04293
                      80.90396                     -49.16556                    -161.91173
                      56.14113                     -66.92383                    -179.75620
                       8.59980                     -79.47888                    -195.76958
                     -56.72682                     -84.98973                    -210.59399
                    -127.17196                     -84.05782                    -225.56993
                    -180.59008                     -80.76505                    -242.92476
                    -183.52406                     -83.45237                    -266.05828
                    -111.73185                    -101.62410                    -293.48383
                      15.59489                    -134.05989                    -322.76555
                     220.54561                    -191.48012                    -360.04856
                     370.04760                    -231.29683                    -384.25095
        </DataArray>
        <DataArray type="Float32" Name="OrientationX" NumberOfComponents="3" format="ascii">
                       0.97867                      -0.20437                       0.02079
                       0.97866                      -0.20449                       0.02042
                       0.97856                      -0.20503                       0.01949
                       0.97840                      -0.20596                       0.01796
                       0.97807                      -0.20776                       0.01471
                       0.98333                      -0.18180                      -0.00220
                       0.98587                      -0.16641                      -0.01935
                       0.98685                      -0.15701                      -0.03843
                       0.98674                      -0.15075                      -0.06012
                       0.98537                      -0.14877                      -0.08313
                       0.98259                      -0.15300                      -0.10536
                       0.97879                      -0.16211                      -0.12525
                       0.97428                      -0.17659                      -0.14001
                       0.96949                      -0.19673                      -0.14624
                       0.96607                      -0.21534                      -0.14262
                       0.96524                      -0.22655                      -0.13033
                       0.96649                      -0.23076                      -0.11248
                       0.96908                      -0.23158                      -0.08520
                       0.97069                      -0.23069                      -0.06743
        </DataArray>
        <DataArray type="Float32" Name="OrientationY" NumberOfComponents="3" format="ascii">
                       0.20000                       0.92489                      -0.32340
                       0.20000                       0.92487                      -0.32345
                       0.20020                       0.92469                      -0.32382
                       0.20054                       0.92439                      -0.32448
                       0.20113                       0.92384                      -0.32567
                       0.17105                       0.92918                      -0.32768
                       0.15085                       0.93203                      -0.32948
                       0.13566                       0.93377                      -0.33117
                       0.12258                       0.93504                      -0.33267
                       0.11310                       0.93575                      -0.33403
                       0.10970                       0.93561                      -0.33557
                       0.11164                       0.93472                      -0.33739
                       0.12022                       0.93275                      -0.33988
                       0.13675                       0.92919                      -0.34337
                       0.15499                       0.92503                      -0.34685
                       0.16916                       0.92165                      -0.34921
                       0.17874                       0.91938                      -0.35041
                       0.18833                       0.91724                      -0.35100
                       0.19336                       0.91622                      -0.35094
        </DataArray>
        <DataArray type="Float32" Name="OrientationZ" NumberOfComponents="3" format="ascii">
                       0.04686                       0.32066                       0.94604
                       0.04726                       0.32063                       0.94602
                       0.04837                       0.32078                       0.94592
                       0.05023                       0.32108                       0.94572
                       0.05407                       0.32148                       0.94537
                       0.06162                       0.32184                       0.94479
                       0.07286                       0.32190                       0.94397
                       0.08788                       0.32160                       0.94279
                       0.10637                       0.32089                       0.94112
                       0.12749                       0.31974                       0.93889
                       0.14992                       0.31817                       0.93611
                       0.17177                       0.31626                       0.93299
                       0.19061                       0.31430                       0.92999
                       0.20343                       0.31289                       0.92775
                       0.20662                       0.31298                       0.92701
                       0.19923                       0.31502                       0.92794
                       0.18427                       0.31857                       0.92982
                       0.15944                       0.32410                       0.93249
                       0.14274                       0.32762                       0.93397
        </DataArray>
        <DataArray type="Float32" Name="Force" NumberOfComponents="3" format="ascii">
                      -0.33530                      10.36342                      -3.49605
                     176.32734                      92.54211                     -40.17639
                     242.59324                     255.17751                     -98.90728
                     230.68890                     369.54992                    -137.55047
                    1653.99993                    -438.48059                      54.14428
                    1978.00102                    -393.57014                       4.60306
                    2099.83918                    -330.95096                     -49.61194
                    2451.93337                    -315.73171                    -121.10483
                    3335.18519                    -373.97245                    -249.45983
                    3584.30923                    -366.01434                    -361.78249
                    4277.60349                    -424.57694                    -540.09246
                    4133.08074                    -411.18747                    -620.65073
                    2727.24043                    -245.42664                    -475.54068
                    1340.22575                     -46.02646                    -278.73813
                     357.81346                     114.08915                    -119.31099
                     599.21806                      71.59114                    -153.76968
                    1892.86712                    -190.81667                    -311.12203
                    3482.75177                    -602.73549                    -392.08616
                  -20068.79565                     638.75527                    2869.61933
        </DataArray>
        <DataArray type="Float32" Name="Moment" NumberOfComponents="3" format="ascii">
                       0.00000                       0.00000                       0.00000
                       0.00000                       0.00000                       0.00000
                       0.00000                       0.00000                       0.00000
                       0.00000                       0.00000                       0.00000
                     -54.46043                    -323.02626                    -952.32952
                    -115.49467                    -601.16465                   -1770.96662
                    -184.05066                    -810.33290                   -2384.43282
                    -346.97796                   -1266.88200                   -3722.16367
                    -625.93520                   -1888.35052                   -5537.63993
                    -862.59889                   -2170.21476                   -6350.47720
                   -1140.47449                   -2437.60615                   -7116.45977
                   -1400.67158                   -2608.83192                   -7599.07230
                   -1176.95733                   -1971.82219                   -5732.22864
                   -1232.73030                   -1931.79123                   -5608.21501
                   -1194.33686                   -1840.73944                   -5341.99078
                   -1100.65076                   -1758.73819                   -5107.89827
                    -927.72076                   -1602.51941                   -4661.40154
                    -419.63010                    -836.96559                   -2440.78647
                    -225.89440                    -502.51377                   -1467.94565
        </DataArray>
      </PointData>
      <Lines>
        <DataArray type="Int32" Name="connectivity" format="ascii">
      0      1
      1      2
      2      3
      3      4
      4      5
      5      6
      6      7
      7      8
      8      9
      9     10
     10     11
     11     12
     12     13
     13     14
     14     15
     15     16
     16     17
     17     18
        </DataArray>
        <DataArray type="Int32" Name="offsets" format="ascii">
      2
      4
      6
      8
     10
     12
     14
     16
     18
     20
     22
     24
     26
     28
     30
     32
     34
     36
        </DataArray>
      </Lines>
    </Piece>
  </PolyData>
</VTKFile>
