<?xml version="1.0"?>
<VTKFile type="PolyData" version="0.1" byte_order="LittleEndian">
  <PolyData>
    <Piece NumberOfPoints="     19" NumberOfVerts="  0" NumberOfLines="     18"
           NumberOfStrips="  0" NumberOfPolys="      0">
      <Points>
        <DataArray type="Float32" NumberOfComponents="3" format="ascii">
                      -4.55222                       0.97946                      91.16144
                      -4.51513                       1.88046                      92.18895
                      -4.45491                       3.61117                      94.30692
                      -4.39896                       5.30899                      96.45439
                      -4.32598                       7.41313                      99.15601
                      -4.17627                      10.04962                     102.29847
                      -3.97901                      12.78658                     105.35046
                      -3.73835                      15.52699                     108.39647
                      -3.43891                      18.27091                     111.43377
                      -3.07070                      21.01560                     114.46245
                      -2.62890                      23.75724                     117.48421
                      -2.11363                      26.49628                     120.49769
                      -1.53520                      29.23280                     123.50347
                      -0.91500                      31.96784                     126.50314
                      -0.28517                      34.70326                     129.49935
                       0.21063                      36.98592                     131.99670
                       0.56261                      38.82171                     133.99184
                       0.85334                      40.70340                     135.95449
                       0.96196                      41.61646                     136.96641
        </DataArray>
      </Points>
      <PointData>
        <DataArray type="Float32" Name="TranslationalVelocity" NumberOfComponents="3" format="ascii">
                       0.12406                      -2.67877                       2.32153
                       0.33209                      -5.10969                       4.44398
                       0.79863                     -10.05985                       8.47594
                       1.33064                     -15.04853                      12.40467
                       2.06759                     -21.35286                      17.28445
                       3.02797                     -28.81000                      23.47279
                       3.99822                     -36.22296                      30.02543
                       4.90512                     -43.79413                      36.73178
                       5.69079                     -51.48844                      43.58030
                       6.29645                     -59.25194                      50.53249
                       6.66590                     -67.01926                      57.53359
                       6.73936                     -74.70785                      64.53121
                       6.45838                     -82.24120                      71.47167
                       5.76719                     -89.55516                      78.30902
                       4.61674                     -96.59765                      85.00334
                       3.26839                    -102.25426                      90.46895
                       1.88580                    -106.63005                      94.78534
                      -0.09073                    -110.76709                      99.15469
                      -0.90325                    -112.91460                     101.24110
        </DataArray>
        <DataArray type="Float32" Name="RotationalVelocity" NumberOfComponents="3" format="ascii">
                       2.36218                      -0.00418                      -0.22452
                       2.35128                       0.00240                      -0.22931
                       2.34157                       0.02201                      -0.23471
                       2.34474                       0.04600                      -0.23479
                       2.36105                       0.07828                      -0.22524
                       2.39330                       0.12242                      -0.18917
                       2.43550                       0.18372                      -0.10796
                       2.48659                       0.27998                       0.04001
                       2.54753                       0.43206                       0.27705
                       2.61988                       0.65938                       0.62156
                       2.70458                       0.97599                       1.08465
                       2.80068                       1.38654                       1.66651
                       2.90412                       1.88220                       2.35290
                       3.00647                       2.43666                       3.11146
                       3.09367                       3.00205                       3.88821
                       3.14114                       3.43249                       4.49615
                       3.15021                       3.70792                       4.91232
                       3.12235                       3.88181                       5.22436
                       3.09093                       3.91759                       5.32793
        </DataArray>
        <DataArray type="Float32" Name="TranslationalAcceleration" NumberOfComponents="3" format="ascii">
                      -2.59580                      -6.21231                      -6.75456
                      -1.16301                      -7.47515                      -7.36609
                      -2.39460                     -19.71275                     -21.54098
                      -0.31434                     -29.42823                     -35.29180
                       8.30312                     -39.53710                     -52.60733
                      26.02178                     -51.50191                     -73.72244
                      46.83040                     -64.83439                     -95.12450
                      62.86884                     -79.78857                    -116.18461
                      66.20085                     -96.63080                    -135.54606
                      50.73877                    -115.12136                    -151.96710
                      14.44694                    -134.71856                    -164.76263
                     -38.51177                    -154.74428                    -174.14105
                     -95.57446                    -174.58030                    -181.63149
                    -133.56881                    -193.88394                    -190.43232
                    -116.51980                    -212.66585                    -205.84549
                     -21.06243                    -229.17980                    -229.28606
                     132.87162                    -243.20412                    -258.68690
                     377.37320                    -260.33265                    -300.27927
                     547.77052                    -268.27158                    -328.87118
        </DataArray>
        <DataArray type="Float32" Name="OrientationX" NumberOfComponents="3" format="ascii">
                       0.98529                      -0.14452                       0.09124
                       0.98528                      -0.14477                       0.09095
                       0.98523                      -0.14550                       0.09033
                       0.98514                      -0.14668                       0.08937
                       0.98496                      -0.14905                       0.08735
                       0.98951                      -0.13028                       0.06236
                       0.99182                      -0.12070                       0.04143
                       0.99298                      -0.11643                       0.02105
                       0.99339                      -0.11478                      -0.00078
                       0.99298                      -0.11609                      -0.02271
                       0.99172                      -0.12122                      -0.04230
                       0.98998                      -0.12837                      -0.05882
                       0.98810                      -0.13716                      -0.06959
                       0.98656                      -0.14704                      -0.07129
                       0.98629                      -0.15158                      -0.06519
                       0.98749                      -0.14838                      -0.05339
                       0.98951                      -0.13932                      -0.03818
                       0.99204                      -0.12500                      -0.01510
                       0.99327                      -0.11584                       0.00006
        </DataArray>
        <DataArray type="Float32" Name="OrientationY" NumberOfComponents="3" format="ascii">
                       0.16869                       0.73643                      -0.65515
                       0.16868                       0.73630                      -0.65529
                       0.16880                       0.73592                      -0.65569
                       0.16902                       0.73536                      -0.65626
                       0.16942                       0.73446                      -0.65716
                       0.13875                       0.73756                      -0.66088
                       0.11763                       0.73884                      -0.66353
                       0.10080                       0.73937                      -0.66571
                       0.08494                       0.73971                      -0.66754
                       0.07120                       0.73986                      -0.66898
                       0.06183                       0.73966                      -0.67013
                       0.05599                       0.73926                      -0.67109
                       0.05517                       0.73845                      -0.67204
                       0.06118                       0.73689                      -0.67324
                       0.06845                       0.73535                      -0.67422
                       0.07387                       0.73439                      -0.67470
                       0.07731                       0.73398                      -0.67476
                       0.08218                       0.73369                      -0.67449
                       0.08559                       0.73363                      -0.67414
        </DataArray>
        <DataArray type="Float32" Name="OrientationZ" NumberOfComponents="3" format="ascii">
                       0.02749                       0.66090                       0.74997
                       0.02790                       0.66098                       0.74988
                       0.02893                       0.66125                       0.74960
                       0.03054                       0.66161                       0.74923
                       0.03379                       0.66208                       0.74867
                       0.04011                       0.66260                       0.74790
                       0.04948                       0.66298                       0.74700
                       0.06195                       0.66315                       0.74592
                       0.07720                       0.66306                       0.74457
                       0.09447                       0.66267                       0.74293
                       0.11252                       0.66197                       0.74103
                       0.12963                       0.66107                       0.73904
                       0.14356                       0.66021                       0.73723
                       0.15152                       0.65982                       0.73598
                       0.15014                       0.66052                       0.73565
                       0.13932                       0.66231                       0.73616
                       0.12204                       0.66473                       0.73705
                       0.09539                       0.66788                       0.73813
                       0.07805                       0.66961                       0.73860
        </DataArray>
        <DataArray type="Float32" Name="Force" NumberOfComponents="3" format="ascii">
                      -0.52963                       6.34048                      -5.56803
                     171.97510                      71.40737                     -69.32808
                     231.14832                     197.47650                    -182.97708
                     215.19368                     286.79082                    -261.60392
                    1648.97288                    -319.52857                     207.34836
                    1893.23404                    -267.00962                     134.10884
                    1889.17907                    -204.57036                      55.61854
                    2122.62774                    -184.17098                     -13.27707
                    2976.06891                    -235.04980                    -100.09960
                    3442.82110                    -266.13641                    -201.23460
                    4634.60213                    -380.09317                    -365.26621
                    5547.28072                    -505.70737                    -522.01767
                    5842.01943                    -615.30790                    -588.22081
                    6377.44368                    -738.61704                    -653.03618
                    6965.28524                    -849.49019                    -662.53213
                    7659.60663                    -932.30559                    -617.35430
                    8163.35702                    -949.53120                    -505.75535
                    6698.33222                    -717.16154                    -229.94271
                  -11053.86604                     203.08648                     993.22638
        </DataArray>
        <DataArray type="Float32" Name="Moment" NumberOfComponents="3" format="ascii">
                       0.00000                       0.00000                       0.00000
                       0.00000                       0.00000                       0.00000
                       0.00000                       0.00000                       0.00000
                       0.00000                       0.00000                       0.00000
                     -33.32630                    -650.92620                    -738.05913
                     -73.34929                   -1206.79508                   -1367.23665
                    -121.14425                   -1615.89448                   -1828.54410
                    -238.95100                   -2546.56946                   -2877.12573
                    -445.83228                   -3813.56589                   -4300.21386
                    -631.00975                   -4410.62763                   -4962.49179
                    -850.03312                   -4986.10032                   -5596.96619
                   -1058.44172                   -5384.77419                   -6031.12417
                    -909.34313                   -4173.32797                   -4665.79642
                    -965.27855                   -4193.60737                   -4683.56858
                    -931.39850                   -4081.30738                   -4558.91191
                    -826.16062                   -3899.32054                   -4361.68831
                    -648.15170                   -3488.98681                   -3911.36127
                    -258.93117                   -1777.38815                   -1999.33545
                    -172.68925                   -1443.06601                   -1626.83618
        </DataArray>
      </PointData>
      <Lines>
        <DataArray type="Int32" Name="connectivity" format="ascii">
      0      1
      1      2
      2      3
      3      4
      4      5
      5      6
      6      7
      7      8
      8      9
      9     10
     10     11
     11     12
     12     13
     13     14
     14     15
     15     16
     16     17
     17     18
        </DataArray>
        <DataArray type="Int32" Name="offsets" format="ascii">
      2
      4
      6
      8
     10
     12
     14
     16
     18
     20
     22
     24
     26
     28
     30
     32
     34
     36
        </DataArray>
      </Lines>
    </Piece>
  </PolyData>
</VTKFile>
