<?xml version="1.0"?>
<VTKFile type="PolyData" version="0.1" byte_order="LittleEndian">
  <PolyData>
    <Piece NumberOfPoints="     19" NumberOfVerts="  0" NumberOfLines="     18"
           NumberOfStrips="  0" NumberOfPolys="      0">
      <Points>
        <DataArray type="Float32" NumberOfComponents="3" format="ascii">
                      -4.67918                      -0.40217                      88.61361
                      -4.86605                      -0.76226                      87.30825
                      -5.25947                      -1.39060                      84.67476
                      -5.65683                      -1.97494                      82.02935
                      -6.14645                      -2.67803                      78.71346
                      -6.65233                      -3.65717                      74.76067
                      -7.09575                      -4.75764                      70.83339
                      -7.49748                      -5.85544                      66.90065
                      -7.84693                      -6.95163                      62.96230
                      -8.13692                      -8.04376                      59.01787
                      -8.36146                      -9.12784                      55.06683
                      -8.51329                     -10.20495                      51.11017
                      -8.58794                     -11.27486                      47.14898
                      -8.58267                     -12.33745                      43.18476
                      -8.49441                     -13.39248                      39.21946
                      -8.35667                     -14.26580                      35.91599
                      -8.20770                     -14.96847                      33.27712
                      -8.02248                     -15.72110                      30.65477
                      -7.92197                     -16.05604                      29.33456
        </DataArray>
      </Points>
      <PointData>
        <DataArray type="Float32" Name="TranslationalVelocity" NumberOfComponents="3" format="ascii">
                      -0.08672                       3.07236                      -0.83934
                      -0.16093                       5.86345                      -1.59864
                      -0.29147                      11.49494                      -2.92289
                      -0.41435                      17.14832                      -4.15350
                      -0.56473                      24.22617                      -5.63280
                      -0.77715                      32.63740                      -7.69057
                      -1.02058                      40.97084                      -9.99982
                      -1.27159                      49.29585                     -12.29955
                      -1.53243                      57.61108                     -14.59219
                      -1.80472                      65.91673                     -16.87307
                      -2.08980                      74.21356                     -19.13446
                      -2.38996                      82.49888                     -21.37940
                      -2.70707                      90.77019                     -23.60829
                      -3.04276                      99.02430                     -25.82180
                      -3.39826                     107.25660                     -28.02042
                      -3.71062                     114.09586                     -29.84178
                      -3.97246                     119.54719                     -31.30848
                      -4.25585                     124.95249                     -32.88060
                      -4.39155                     127.67072                     -33.58109
        </DataArray>
        <DataArray type="Float32" Name="RotationalVelocity" NumberOfComponents="3" format="ascii">
                       2.10934                       0.00041                      -0.20458
                       2.10888                       0.00051                      -0.20457
                       2.10764                       0.00086                      -0.20459
                       2.10608                       0.00138                      -0.20473
                       2.10381                       0.00223                      -0.20509
                       2.10084                       0.00349                      -0.20591
                       2.09781                       0.00500                      -0.20728
                       2.09487                       0.00677                      -0.20926
                       2.09212                       0.00884                      -0.21193
                       2.08964                       0.01125                      -0.21528
                       2.08744                       0.01405                      -0.21928
                       2.08553                       0.01727                      -0.22379
                       2.08390                       0.02089                      -0.22862
                       2.08251                       0.02488                      -0.23344
                       2.08135                       0.02914                      -0.23785
                       2.08053                       0.03279                      -0.24085
                       2.07997                       0.03567                      -0.24252
                       2.07951                       0.03842                      -0.24328
                       2.07931                       0.03971                      -0.24324
        </DataArray>
        <DataArray type="Float32" Name="TranslationalAcceleration" NumberOfComponents="3" format="ascii">
                       0.55267                       1.88060                       6.42270
                       0.73296                       2.26933                       7.77546
                       2.12067                       6.08373                      22.35236
                       3.41200                       9.34960                      35.80863
                       4.92296                      12.96521                      51.54578
                       6.60925                      17.57088                      69.24480
                       8.21270                      22.52478                      86.29508
                       9.78728                      27.39918                     103.26247
                      11.36521                      32.27606                     120.35666
                      12.97484                      37.18584                     137.64199
                      14.64316                      42.12706                     155.07733
                      16.39987                      47.10759                     172.55053
                      18.28039                      52.12687                     189.93007
                      20.32890                      57.19351                     207.10622
                      22.60076                      62.33828                     224.03229
                      24.71995                      66.73112                     237.98437
                      26.59844                      70.38457                     249.10892
                      28.72656                      74.41390                     260.24682
                      29.82751                      76.31734                     265.94036
        </DataArray>
        <DataArray type="Float32" Name="OrientationX" NumberOfComponents="3" format="ascii">
                       0.95781                       0.21059                      -0.19556
                       0.95790                       0.21078                      -0.19493
                       0.95817                       0.21140                      -0.19291
                       0.95856                       0.21235                      -0.18992
                       0.95916                       0.21397                      -0.18503
                       0.96759                       0.18652                      -0.17020
                       0.97338                       0.16825                      -0.15565
                       0.97814                       0.15371                      -0.14008
                       0.98265                       0.13925                      -0.12254
                       0.98672                       0.12549                      -0.10314
                       0.99003                       0.11424                      -0.08243
                       0.99269                       0.10450                      -0.06036
                       0.99449                       0.09779                      -0.03776
                       0.99523                       0.09623                      -0.01587
                       0.99544                       0.09519                       0.00548
                       0.99533                       0.09397                       0.02212
                       0.99509                       0.09298                       0.03383
                       0.99457                       0.09487                       0.04268
                       0.99419                       0.09753                       0.04563
        </DataArray>
        <DataArray type="Float32" Name="OrientationY" NumberOfComponents="3" format="ascii">
                       0.25297                      -0.94071                       0.22598
                       0.25299                      -0.94068                       0.22607
                       0.25309                      -0.94060                       0.22632
                       0.25325                      -0.94048                       0.22665
                       0.25357                      -0.94027                       0.22712
                       0.22348                      -0.94637                       0.23334
                       0.20221                      -0.95011                       0.23750
                       0.18424                      -0.95294                       0.24076
                       0.16580                      -0.95557                       0.24372
                       0.14757                      -0.95791                       0.24624
                       0.13141                      -0.95978                       0.24812
                       0.11637                      -0.96136                       0.24948
                       0.10415                      -0.96256                       0.25025
                       0.09713                      -0.96322                       0.25055
                       0.09079                      -0.96381                       0.25067
                       0.08547                      -0.96430                       0.25065
                       0.08162                      -0.96464                       0.25061
                       0.08125                      -0.96464                       0.25073
                       0.08310                      -0.96444                       0.25092
        </DataArray>
        <DataArray type="Float32" Name="OrientationZ" NumberOfComponents="3" format="ascii">
                      -0.13637                      -0.26592                      -0.95430
                      -0.13572                      -0.26587                      -0.95441
                      -0.13360                      -0.26568                      -0.95476
                      -0.13049                      -0.26535                      -0.95528
                      -0.12538                      -0.26476                      -0.95613
                      -0.11755                      -0.26382                      -0.95738
                      -0.10792                      -0.26265                      -0.95884
                      -0.09648                      -0.26130                      -0.96042
                      -0.08316                      -0.25981                      -0.96207
                      -0.06790                      -0.25819                      -0.96370
                      -0.05077                      -0.25648                      -0.96522
                      -0.03196                      -0.25468                      -0.96650
                      -0.01187                      -0.25281                      -0.96744
                       0.00882                      -0.25090                      -0.96797
                       0.02914                      -0.24903                      -0.96806
                       0.04488                      -0.24759                      -0.96783
                       0.05594                      -0.24662                      -0.96750
                       0.06495                      -0.24590                      -0.96712
                       0.06848                      -0.24567                      -0.96693
        </DataArray>
        <DataArray type="Float32" Name="Force" NumberOfComponents="3" format="ascii">
                       0.36077                     -13.53091                       3.71887
                     140.38171                     -89.15230                       4.87820
                     212.46721                    -241.91181                      37.65797
                     214.81707                    -345.26126                      66.80464
                    1393.00435                     381.05332                    -288.74860
                    1798.91538                     381.40377                    -326.97945
                    2063.04027                     355.81818                    -331.09633
                    2565.65833                     365.87876                    -359.28367
                    3604.22095                     430.19966                    -430.66763
                    4288.10899                     444.47962                    -424.85681
                    5453.75964                     485.25115                    -420.24574
                    6301.95541                     504.05834                    -346.09306
                    6667.10494                     541.45564                    -228.78792
                    7237.66108                     577.42459                     -89.53606
                    7748.41361                     616.28808                      68.61352
                    8088.90585                     640.72443                     205.09150
                    8001.21282                     628.74813                     296.58745
                    5868.20801                     468.58271                     270.78271
                     637.09909                     -71.93718                      65.26886
        </DataArray>
        <DataArray type="Float32" Name="Moment" NumberOfComponents="3" format="ascii">
                       0.00000                       0.00000                       0.00000
                       0.00000                       0.00000                       0.00000
                       0.00000                       0.00000                       0.00000
                       0.00000                       0.00000                       0.00000
                     112.42755                     238.61213                     857.27175
                     194.70857                     440.97834                    1585.58906
                     238.05884                     587.57828                    2114.78028
                     322.84978                     891.87717                    3213.73116
                     401.87825                    1288.96519                    4650.84976
                     370.65342                    1457.02295                    5265.34879
                     303.73132                    1598.84326                    5787.84720
                     202.30830                    1697.24190                    6155.70499
                      57.66402                    1325.63976                    4817.68102
                     -45.93171                    1322.60841                    4816.70156
                    -143.42038                    1282.22765                    4679.23563
                    -209.82304                    1220.71931                    4461.88236
                    -232.86538                    1087.03160                    3977.70157
                    -136.24799                     547.49328                    2005.24497
                    -133.25950                     507.76577                    1860.40845
        </DataArray>
      </PointData>
      <Lines>
        <DataArray type="Int32" Name="connectivity" format="ascii">
      0      1
      1      2
      2      3
      3      4
      4      5
      5      6
      6      7
      7      8
      8      9
      9     10
     10     11
     11     12
     12     13
     13     14
     14     15
     15     16
     16     17
     17     18
        </DataArray>
        <DataArray type="Int32" Name="offsets" format="ascii">
      2
      4
      6
      8
     10
     12
     14
     16
     18
     20
     22
     24
     26
     28
     30
     32
     34
     36
        </DataArray>
      </Lines>
    </Piece>
  </PolyData>
</VTKFile>
