<?xml version="1.0"?>
<VTKFile type="PolyData" version="0.1" byte_order="LittleEndian">
  <PolyData>
    <Piece NumberOfPoints="     19" NumberOfVerts="  0" NumberOfLines="     18"
           NumberOfStrips="  0" NumberOfPolys="      0">
      <Points>
        <DataArray type="Float32" NumberOfComponents="3" format="ascii">
                      -4.57494                      -0.43957                      91.46940
                      -4.51214                      -0.82496                      92.77931
                      -4.40496                      -1.68628                      95.37401
                      -4.30042                      -2.59078                      97.95678
                      -4.16241                      -3.74774                     101.17787
                      -3.91753                      -5.00020                     105.07858
                      -3.61728                      -6.12854                     109.01209
                      -3.28775                      -7.25393                     112.94455
                      -2.92227                      -8.37366                     116.87613
                      -2.51602                      -9.48875                     120.80579
                      -2.06299                     -10.60230                     124.73135
                      -1.55270                     -11.71322                     128.65089
                      -0.97349                     -12.82281                     132.56093
                      -0.31084                     -13.93364                     136.45653
                       0.45551                     -15.05010                     140.33039
                       1.19178                     -15.98934                     143.53477
                       1.85342                     -16.74195                     146.08064
                       2.59858                     -17.45313                     148.61828
                       2.99317                     -17.85339                     149.86753
        </DataArray>
      </Points>
      <PointData>
        <DataArray type="Float32" Name="TranslationalVelocity" NumberOfComponents="3" format="ascii">
                      -0.00019                      -3.48681                      -0.98205
                      -0.08709                      -6.68291                      -1.91231
                      -0.34806                     -13.01622                      -4.00805
                      -0.73514                     -19.33078                      -6.21621
                      -1.39972                     -27.22130                      -9.03219
                      -2.33842                     -36.80804                     -12.04584
                      -3.27011                     -46.47440                     -14.72328
                      -4.01736                     -56.09098                     -17.38181
                      -4.36133                     -65.62494                     -20.04428
                      -4.12269                     -75.05070                     -22.74364
                      -3.21008                     -84.35902                     -25.50910
                      -1.65770                     -93.57252                     -28.34614
                       0.32182                    -102.74647                     -31.24296
                       2.29043                    -111.97926                     -34.16131
                       3.53256                    -121.43229                     -37.03484
                       3.22499                    -129.64436                     -39.30484
                       1.62262                    -136.55049                     -40.96847
                      -1.42099                    -143.93646                     -42.39644
                      -4.04873                    -147.75236                     -43.05051
        </DataArray>
        <DataArray type="Float32" Name="RotationalVelocity" NumberOfComponents="3" format="ascii">
                       2.42525                       0.00731                      -0.22793
                       2.42852                       0.00134                      -0.23031
                       2.43176                      -0.02239                      -0.24740
                       2.43170                      -0.05304                      -0.27460
                       2.42847                      -0.08568                      -0.31620
                       2.42027                      -0.09397                      -0.37848
                       2.40561                      -0.04716                      -0.46800
                       2.38092                       0.06779                      -0.60820
                       2.34123                       0.25497                      -0.82777
                       2.28104                       0.50709                      -1.15468
                       2.19498                       0.80456                      -1.61098
                       2.07856                       1.11429                      -2.20745
                       1.92882                       1.38848                      -2.93828
                       1.74506                       1.56346                      -3.77576
                       1.52958                       1.55846                      -4.66490
                       1.33033                       1.35401                      -5.38607
                       1.16130                       1.00380                      -5.89986
                       0.98826                       0.44598                      -6.30782
                       0.90182                       0.07674                      -6.45582
        </DataArray>
        <DataArray type="Float32" Name="TranslationalAcceleration" NumberOfComponents="3" format="ascii">
                       1.24798                       0.93073                      -8.63281
                      -0.63545                       0.78840                     -10.73823
                      -5.97818                       1.84889                     -31.17150
                     -14.65791                       3.63857                     -49.87066
                     -26.62184                       8.65997                     -70.57038
                     -38.37432                      19.09493                     -92.09064
                     -44.29821                      34.00789                    -111.83761
                     -41.52266                      51.26042                    -131.64827
                     -29.82197                      66.96659                    -153.31207
                     -11.18443                      77.17364                    -178.05555
                      10.01735                      78.89578                    -206.17083
                      26.56517                      71.21568                    -236.64234
                      28.33378                      56.21425                    -266.77500
                       2.01755                      39.98152                    -291.80787
                     -69.14689                      33.76793                    -304.42055
                    -178.69107                      49.13835                    -297.37105
                    -308.02399                      83.78174                    -275.23162
                    -487.27005                     146.21401                    -232.74706
                    -593.57737                     192.86044                    -202.48601
        </DataArray>
        <DataArray type="Float32" Name="OrientationX" NumberOfComponents="3" format="ascii">
                       0.96576                      -0.23284                      -0.11445
                       0.96572                      -0.23265                      -0.11516
                       0.96553                      -0.23224                      -0.11752
                       0.96522                      -0.23182                      -0.12083
                       0.96467                      -0.23144                      -0.12585
                       0.97150                      -0.20165                      -0.12462
                       0.97529                      -0.18106                      -0.12657
                       0.97771                      -0.16459                      -0.13039
                       0.97952                      -0.14891                      -0.13553
                       0.98053                      -0.13485                      -0.14278
                       0.98032                      -0.12434                      -0.15331
                       0.97897                      -0.11640                      -0.16754
                       0.97602                      -0.11241                      -0.18643
                       0.97082                      -0.11418                      -0.21088
                       0.96381                      -0.11663                      -0.23971
                       0.95656                      -0.11799                      -0.26660
                       0.94971                      -0.11846                      -0.28987
                       0.94135                      -0.12087                      -0.31504
                       0.93647                      -0.12333                      -0.32836
        </DataArray>
        <DataArray type="Float32" Name="OrientationY" NumberOfComponents="3" format="ascii">
                       0.25530                       0.93147                       0.25921
                       0.25530                       0.93153                       0.25898
                       0.25553                       0.93163                       0.25838
                       0.25602                       0.93171                       0.25762
                       0.25700                       0.93176                       0.25646
                       0.22803                       0.93862                       0.25883
                       0.20875                       0.94281                       0.25986
                       0.19393                       0.94588                       0.26019
                       0.18021                       0.94858                       0.26024
                       0.16861                       0.95080                       0.25991
                       0.16128                       0.95234                       0.25892
                       0.15741                       0.95338                       0.25745
                       0.15860                       0.95377                       0.25528
                       0.16684                       0.95326                       0.25192
                       0.17700                       0.95239                       0.24826
                       0.18573                       0.95149                       0.24529
                       0.19275                       0.95068                       0.24301
                       0.20222                       0.94948                       0.23997
                       0.20836                       0.94868                       0.23791
        </DataArray>
        <DataArray type="Float32" Name="OrientationZ" NumberOfComponents="3" format="ascii">
                       0.04625                      -0.27955                       0.95902
                       0.04703                      -0.27950                       0.95899
                       0.04948                      -0.27950                       0.95887
                       0.05285                      -0.27959                       0.95866
                       0.05791                      -0.27974                       0.95833
                       0.06477                      -0.27987                       0.95785
                       0.07228                      -0.27986                       0.95732
                       0.08051                      -0.27968                       0.95671
                       0.08981                      -0.27934                       0.95598
                       0.10071                      -0.27892                       0.95502
                       0.11381                      -0.27855                       0.95365
                       0.12976                      -0.27841                       0.95166
                       0.14911                      -0.27873                       0.94872
                       0.17226                      -0.27975                       0.94449
                       0.19934                      -0.28170                       0.93857
                       0.22472                      -0.28414                       0.93207
                       0.24678                      -0.28665                       0.92570
                       0.27012                      -0.28960                       0.91824
                       0.28217                      -0.29121                       0.91410
        </DataArray>
        <DataArray type="Float32" Name="Force" NumberOfComponents="3" format="ascii">
                       0.43901                      16.12575                       4.67938
                     184.24472                     103.71814                      21.20082
                     271.10053                     288.46225                      70.11895
                     276.34456                     422.43386                     107.97166
                    1888.46765                    -559.92922                    -277.62115
                    2682.39820                    -639.37557                    -368.29392
                    3429.77616                    -697.15886                    -462.90124
                    4451.25264                    -772.47055                    -600.61600
                    5866.12762                    -848.03545                    -799.12964
                    6099.16587                    -722.60505                    -854.20879
                    6121.56346                    -541.48941                    -888.27620
                    4671.37507                    -264.13228                    -713.39089
                    1759.35767                      26.61969                    -268.17096
                   -1112.74213                     213.20636                     265.54432
                   -4138.73918                     312.39647                     970.41872
                   -5788.96694                     333.39990                    1493.40631
                   -6062.66996                     337.65317                    1715.55636
                   -4291.02879                     274.47847                    1343.44297
                  -15538.32936                    -655.65837                    4598.12802
        </DataArray>
        <DataArray type="Float32" Name="Moment" NumberOfComponents="3" format="ascii">
                       0.00000                       0.00000                       0.00000
                       0.00000                       0.00000                       0.00000
                       0.00000                       0.00000                       0.00000
                       0.00000                       0.00000                       0.00000
                     -67.07263                     323.62565                   -1108.96437
                    -143.79166                     620.30177                   -2124.15207
                    -219.88573                     850.39737                   -2909.95308
                    -371.05884                    1289.25004                   -4408.11492
                    -589.77680                    1838.48870                   -6280.34465
                    -734.87065                    2044.46727                   -6976.56179
                    -890.10870                    2192.00388                   -7470.42844
                   -1046.69321                    2260.18937                   -7690.71429
                    -877.63414                    1647.24269                   -5594.27937
                    -958.53241                    1553.62222                   -5264.06112
                   -1052.05083                    1467.75917                   -4959.39195
                   -1134.41089                    1397.44447                   -4709.35131
                   -1123.89201                    1254.78960                   -4218.73056
                    -634.43506                     643.44685                   -2157.88200
                    -603.91500                     584.45587                   -1957.45459
        </DataArray>
      </PointData>
      <Lines>
        <DataArray type="Int32" Name="connectivity" format="ascii">
      0      1
      1      2
      2      3
      3      4
      4      5
      5      6
      6      7
      7      8
      8      9
      9     10
     10     11
     11     12
     12     13
     13     14
     14     15
     15     16
     16     17
     17     18
        </DataArray>
        <DataArray type="Int32" Name="offsets" format="ascii">
      2
      4
      6
      8
     10
     12
     14
     16
     18
     20
     22
     24
     26
     28
     30
     32
     34
     36
        </DataArray>
      </Lines>
    </Piece>
  </PolyData>
</VTKFile>
