<?xml version="1.0"?>
<VTKFile type="PolyData" version="0.1" byte_order="LittleEndian">
  <PolyData>
    <Piece NumberOfPoints="     19" NumberOfVerts="  0" NumberOfLines="     18"
           NumberOfStrips="  0" NumberOfPolys="      0">
      <Points>
        <DataArray type="Float32" NumberOfComponents="3" format="ascii">
                      -4.59286                       1.39342                      90.60847
                      -4.60276                       2.65549                      91.13286
                      -4.62869                       5.14406                      92.26992
                      -4.64856                       7.61707                      93.44724
                      -4.65616                      10.70076                      94.93999
                      -4.59322                      14.45970                      96.58776
                      -4.48360                      18.27028                      98.10557
                      -4.34361                      22.08333                      99.61466
                      -4.17293                      25.89906                     101.11536
                      -3.97215                      29.71600                     102.61170
                      -3.73858                      33.53169                     104.10866
                      -3.46275                      37.34506                     105.60484
                      -3.12937                      41.15386                     107.09831
                      -2.71445                      44.95514                     108.58452
                      -2.18101                      48.74497                     110.05510
                      -1.60835                      51.89055                     111.25899
                      -1.04744                      54.39961                     112.19475
                      -0.38258                      56.91905                     113.05689
                       0.00919                      58.15756                     113.51402
        </DataArray>
      </Points>
      <PointData>
        <DataArray type="Float32" Name="TranslationalVelocity" NumberOfComponents="3" format="ascii">
                       0.35688                      -1.35572                       3.35918
                       0.64352                      -2.62055                       6.40438
                       1.29363                      -5.34906                      12.39137
                       1.98776                      -8.17462                      18.34142
                       2.82601                     -11.77752                      25.78904
                       3.72109                     -15.80299                      34.92909
                       4.46567                     -19.54410                      44.24837
                       5.05595                     -23.26201                      53.58167
                       5.57619                     -26.92723                      62.87029
                       6.16498                     -30.52681                      72.04991
                       7.00231                     -34.06841                      81.06624
                       8.30869                     -37.57459                      89.89696
                      10.32718                     -41.10450                      98.55588
                      13.31211                     -44.75854                     107.10823
                      17.51707                     -48.69346                     115.69542
                      22.15152                     -52.35806                     123.04834
                      26.69961                     -55.62695                     129.17148
                      32.40082                     -59.21240                     135.58562
                      35.27794                     -61.27699                     138.98884
        </DataArray>
        <DataArray type="Float32" Name="RotationalVelocity" NumberOfComponents="3" format="ascii">
                       2.41035                       0.00355                      -0.22913
                       2.41028                       0.00566                      -0.23625
                       2.41214                      -0.00139                      -0.25273
                       2.41594                      -0.02203                      -0.26823
                       2.42163                      -0.06579                      -0.28339
                       2.42646                      -0.14997                      -0.29852
                       2.42438                      -0.28016                      -0.32332
                       2.41038                      -0.47154                      -0.37780
                       2.37934                      -0.74116                      -0.48550
                       2.32643                      -1.10389                      -0.66948
                       2.24739                      -1.56962                      -0.94859
                       2.13874                      -2.14025                      -1.33369
                       1.99810                      -2.80668                      -1.82394
                       1.82441                      -3.54579                      -2.40297
                       1.61823                      -4.31740                      -3.03517
                       1.42386                      -4.94446                      -3.56261
                       1.25453                      -5.40203                      -3.95137
                       1.07506                      -5.78794                      -4.27647
                       0.98228                      -5.94352                      -4.40388
        </DataArray>
        <DataArray type="Float32" Name="TranslationalAcceleration" NumberOfComponents="3" format="ascii">
                       2.87892                      -7.37190                      -3.80114
                       0.17551                      -8.70986                      -5.70565
                      -3.37073                     -23.62787                     -20.63866
                     -12.62964                     -36.99204                     -36.19408
                     -31.96235                     -53.94952                     -52.01354
                     -62.27319                     -76.92913                     -60.86090
                     -92.75465                    -102.97408                     -58.40599
                    -114.90550                    -131.15398                     -48.92537
                    -120.12736                    -159.99231                     -38.35951
                    -101.88438                    -187.63199                     -33.49263
                     -57.56623                    -212.19789                     -40.31658
                      10.05051                    -232.31607                     -62.28305
                      90.85589                    -247.50477                     -98.78922
                     165.69174                    -258.71670                    -143.50726
                     204.55423                    -269.13095                    -182.44127
                     177.14920                    -281.23235                    -192.91285
                      96.56862                    -296.39508                    -174.37127
                     -47.37973                    -322.46641                    -119.63480
                    -162.81980                    -337.61566                     -73.33470
        </DataArray>
        <DataArray type="Float32" Name="OrientationX" NumberOfComponents="3" format="ascii">
                       0.98953                      -0.04811                       0.13609
                       0.98954                      -0.04895                       0.13572
                       0.98959                      -0.05179                       0.13426
                       0.98967                      -0.05574                       0.13209
                       0.98978                      -0.06141                       0.12873
                       0.99390                      -0.05653                       0.09466
                       0.99620                      -0.05447                       0.06796
                       0.99769                      -0.05263                       0.04296
                       0.99865                      -0.04963                       0.01545
                       0.99883                      -0.04619                      -0.01463
                       0.99796                      -0.04392                      -0.04623
                       0.99577                      -0.04375                      -0.08085
                       0.99193                      -0.04796                      -0.11732
                       0.98636                      -0.05948                      -0.15350
                       0.97799                      -0.07888                      -0.19318
                       0.96812                      -0.10239                      -0.22862
                       0.95781                      -0.12755                      -0.25755
                       0.94551                      -0.16044                      -0.28332
                       0.93862                      -0.18028                      -0.29409
        </DataArray>
        <DataArray type="Float32" Name="OrientationY" NumberOfComponents="3" format="ascii">
                       0.14415                       0.37868                      -0.91424
                       0.14413                       0.37830                      -0.91439
                       0.14387                       0.37716                      -0.91490
                       0.14336                       0.37564                      -0.91561
                       0.14239                       0.37345                      -0.91666
                       0.10897                       0.37278                      -0.92150
                       0.08341                       0.37196                      -0.92449
                       0.05949                       0.37154                      -0.92651
                       0.03283                       0.37178                      -0.92774
                       0.00364                       0.37261                      -0.92798
                      -0.02649                       0.37390                      -0.92709
                      -0.05860                       0.37563                      -0.92491
                      -0.09072                       0.37774                      -0.92146
                      -0.11980                       0.38013                      -0.91714
                      -0.14917                       0.38306                      -0.91160
                      -0.17315                       0.38603                      -0.90609
                      -0.19062                       0.38870                      -0.90143
                      -0.20266                       0.39104                      -0.89778
                      -0.20573                       0.39178                      -0.89676
        </DataArray>
        <DataArray type="Float32" Name="OrientationZ" NumberOfComponents="3" format="ascii">
                      -0.00755                       0.92428                       0.38165
                      -0.00658                       0.92439                       0.38140
                      -0.00325                       0.92470                       0.38069
                       0.00141                       0.92509                       0.37975
                       0.00822                       0.92561                       0.37838
                       0.01681                       0.92620                       0.37666
                       0.02508                       0.92665                       0.37509
                       0.03281                       0.92693                       0.37381
                       0.04030                       0.92699                       0.37290
                       0.04831                       0.92684                       0.37234
                       0.05800                       0.92643                       0.37197
                       0.07083                       0.92574                       0.37148
                       0.08851                       0.92467                       0.37034
                       0.11290                       0.92302                       0.36782
                       0.14590                       0.92035                       0.36286
                       0.18103                       0.91679                       0.35599
                       0.21509                       0.91249                       0.34799
                       0.25483                       0.90628                       0.33722
                       0.27689                       0.90222                       0.33064
        </DataArray>
        <DataArray type="Float32" Name="Force" NumberOfComponents="3" format="ascii">
                      -0.63595                       2.75887                      -6.69407
                     164.59224                      39.17213                     -92.05794
                     219.39840                     105.55724                    -254.07391
                     202.70572                     153.31412                    -372.94367
                    1633.65056                    -132.63173                     286.42608
                    2026.17062                    -126.40181                     216.82709
                    2402.89151                    -128.16224                     151.58930
                    3333.36882                    -161.66219                     102.55144
                    5105.86125                    -226.76826                       4.64986
                    6630.39986                    -282.09362                    -164.82111
                    8771.23686                    -353.13636                    -491.96697
                   10814.81337                    -459.57211                    -915.75414
                   11786.10554                    -602.50958                   -1305.84581
                   10248.49817                    -568.61333                   -1706.74171
                   16848.44808                   -1534.67017                   -2854.06992
                   24684.37391                   -3274.41109                   -4068.99912
                   28518.28957                   -4886.22103                   -4748.62156
                   24061.66391                   -5265.89457                   -3979.36530
                   23570.76355                   -5463.46013                   -4750.05947
        </DataArray>
        <DataArray type="Float32" Name="Moment" NumberOfComponents="3" format="ascii">
                       0.00000                       0.00000                       0.00000
                       0.00000                       0.00000                       0.00000
                       0.00000                       0.00000                       0.00000
                       0.00000                       0.00000                       0.00000
                      -8.51551                    -937.90580                    -385.73547
                     -32.85162                   -1778.80514                    -729.98812
                     -67.33277                   -2448.33788                   -1002.65069
                    -138.45110                   -3854.02824                   -1575.22949
                    -250.35427                   -5684.46896                   -2318.98843
                    -343.39048                   -6520.13659                   -2654.55827
                    -452.37930                   -7175.95923                   -2914.49204
                    -588.37144                   -7663.57666                   -3102.53707
                    -603.81646                   -6304.53466                   -2540.96005
                    -726.76033                   -5948.04062                   -2382.35622
                   -1018.08476                   -6429.22042                   -2552.99121
                   -1319.02896                   -6678.78832                   -2627.25677
                   -1347.51966                   -5704.39325                   -2222.96711
                    -802.54897                   -2840.17598                   -1094.29420
                    -944.42903                   -3057.09555                   -1170.21562
        </DataArray>
      </PointData>
      <Lines>
        <DataArray type="Int32" Name="connectivity" format="ascii">
      0      1
      1      2
      2      3
      3      4
      4      5
      5      6
      6      7
      7      8
      8      9
      9     10
     10     11
     11     12
     12     13
     13     14
     14     15
     15     16
     16     17
     17     18
        </DataArray>
        <DataArray type="Int32" Name="offsets" format="ascii">
      2
      4
      6
      8
     10
     12
     14
     16
     18
     20
     22
     24
     26
     28
     30
     32
     34
     36
        </DataArray>
      </Lines>
    </Piece>
  </PolyData>
</VTKFile>
