<?xml version="1.0"?>
<VTKFile type="PolyData" version="0.1" byte_order="LittleEndian">
  <PolyData>
    <Piece NumberOfPoints="     19" NumberOfVerts="  0" NumberOfLines="     18"
           NumberOfStrips="  0" NumberOfPolys="      0">
      <Points>
        <DataArray type="Float32" NumberOfComponents="3" format="ascii">
                      -4.51556                       0.88993                      91.23274
                      -4.47139                       1.71263                      92.32343
                      -4.39480                       3.28374                      94.56205
                      -4.31664                       4.82094                      96.82715
                      -4.20527                       6.72323                      99.67365
                      -3.99518                       9.12255                     102.99713
                      -3.72873                      11.62565                     106.23757
                      -3.41987                      14.12921                     109.47401
                      -3.06342                      16.63358                     112.70526
                      -2.65773                      19.13649                     115.93230
                      -2.20161                      21.63470                     119.15669
                      -1.69185                      24.12955                     122.37595
                      -1.12557                      26.62168                     125.58785
                      -0.49840                      29.11219                     128.78931
                       0.19862                      31.60279                     131.97559
                       0.84175                      33.68017                     134.61465
                       1.39838                      35.35067                     136.70847
                       1.98542                      37.06813                     138.75778
                       2.30704                      37.89528                     139.79957
        </DataArray>
      </Points>
      <PointData>
        <DataArray type="Float32" Name="TranslationalVelocity" NumberOfComponents="3" format="ascii">
                       0.10732                      -2.89901                       2.15852
                       0.29578                      -5.54644                       4.13768
                       0.70850                     -11.02081                       7.97306
                       1.23868                     -16.58305                      11.75168
                       2.11590                     -23.55909                      16.40161
                       3.44715                     -31.65438                      22.16209
                       4.88150                     -39.46284                      28.05332
                       6.12894                     -47.17841                      33.87530
                       6.91812                     -54.83340                      39.70837
                       7.04945                     -62.48333                      45.63476
                       6.46838                     -70.19719                      51.71580
                       5.33516                     -78.03821                      57.97919
                       4.09696                     -86.06683                      64.38054
                       3.55856                     -94.32931                      70.78118
                       4.95322                    -102.84539                      76.92332
                       8.91105                    -110.12598                      81.52957
                      14.73885                    -116.03675                      84.69040
                      23.71933                    -121.92210                      87.31815
                      29.77139                    -124.94010                      88.18130
        </DataArray>
        <DataArray type="Float32" Name="RotationalVelocity" NumberOfComponents="3" format="ascii">
                       2.41315                      -0.00543                      -0.23024
                       2.41912                      -0.00228                      -0.23127
                       2.42635                       0.02342                      -0.24620
                       2.42710                       0.06584                      -0.26700
                       2.42051                       0.12587                      -0.28450
                       2.40548                       0.18633                      -0.27369
                       2.38975                       0.21485                      -0.21655
                       2.38122                       0.20254                      -0.11365
                       2.38715                       0.15201                       0.02463
                       2.41264                       0.07930                       0.17907
                       2.45923                       0.01481                       0.32385
                       2.52346                       0.00451                       0.42846
                       2.59542                       0.11101                       0.45972
                       2.65732                       0.41479                       0.38376
                       2.68207                       1.01522                       0.16799
                       2.64983                       1.81636                      -0.13580
                       2.56752                       2.72257                      -0.47520
                       2.41618                       3.91317                      -0.90592
                       2.30869                       4.62952                      -1.15648
        </DataArray>
        <DataArray type="Float32" Name="TranslationalAcceleration" NumberOfComponents="3" format="ascii">
                       0.70478                      -5.99673                      -5.28921
                      -1.42991                      -8.35720                      -6.58339
                      -0.42688                     -25.33643                     -18.80462
                       1.87468                     -41.86290                     -30.10525
                       1.53288                     -60.66056                     -43.60162
                      -7.62120                     -79.67175                     -59.09989
                     -26.18844                     -94.33125                     -75.21122
                     -49.87335                    -104.66470                     -93.26825
                     -71.30634                    -112.03084                    -113.53740
                     -81.91445                    -118.31822                    -136.09291
                     -73.84925                    -125.59141                    -160.96876
                     -41.47567                    -135.87510                    -188.26167
                      16.61350                    -150.59126                    -218.35359
                      95.75285                    -170.14646                    -252.02362
                     183.33033                    -193.98351                    -290.30740
                     246.02016                    -215.85306                    -326.74251
                     277.72095                    -232.76750                    -360.65177
                     292.04751                    -246.72683                    -403.35611
                     272.05365                    -252.89901                    -424.22832
        </DataArray>
        <DataArray type="Float32" Name="OrientationX" NumberOfComponents="3" format="ascii">
                       0.98425                      -0.15775                       0.07980
                       0.98423                      -0.15814                       0.07926
                       0.98420                      -0.15937                       0.07717
                       0.98416                      -0.16117                       0.07391
                       0.98407                      -0.16403                       0.06859
                       0.98886                      -0.14302                       0.04130
                       0.99153                      -0.12870                       0.01762
                       0.99328                      -0.11560                      -0.00623
                       0.99446                      -0.09975                      -0.03306
                       0.99473                      -0.08091                      -0.06299
                       0.99364                      -0.06011                      -0.09524
                       0.99076                      -0.03654                      -0.13060
                       0.98573                      -0.01209                      -0.16788
                       0.97870                       0.01011                      -0.20506
                       0.96933                       0.03166                      -0.24370
                       0.95996                       0.04761                      -0.27606
                       0.95196                       0.05708                      -0.30086
                       0.94487                       0.05965                      -0.32197
                       0.94209                       0.05730                      -0.33044
        </DataArray>
        <DataArray type="Float32" Name="OrientationY" NumberOfComponents="3" format="ascii">
                       0.17383                       0.78153                      -0.59916
                       0.17381                       0.78124                      -0.59954
                       0.17348                       0.78059                      -0.60049
                       0.17289                       0.77985                      -0.60161
                       0.17187                       0.77891                      -0.60312
                       0.13856                       0.78285                      -0.60659
                       0.11276                       0.78540                      -0.60863
                       0.08786                       0.78777                      -0.60967
                       0.05902                       0.79048                      -0.60964
                       0.02601                       0.79330                      -0.60827
                      -0.00989                       0.79585                      -0.60541
                      -0.04976                       0.79790                      -0.60074
                      -0.09141                       0.79904                      -0.59428
                      -0.13117                       0.79916                      -0.58663
                      -0.17123                       0.79832                      -0.57737
                      -0.20309                       0.79704                      -0.56876
                      -0.22532                       0.79591                      -0.56193
                      -0.23994                       0.79521                      -0.55684
                      -0.24320                       0.79517                      -0.55548
        </DataArray>
        <DataArray type="Float32" Name="OrientationZ" NumberOfComponents="3" format="ascii">
                       0.03215                       0.60359                       0.79664
                       0.03289                       0.60386                       0.79641
                       0.03546                       0.60439                       0.79590
                       0.03932                       0.60486                       0.79536
                       0.04550                       0.60530                       0.79469
                       0.05442                       0.60555                       0.79394
                       0.06449                       0.60546                       0.79326
                       0.07538                       0.60503                       0.79263
                       0.08695                       0.60432                       0.79199
                       0.09918                       0.60343                       0.79123
                       0.11219                       0.60250                       0.79020
                       0.12616                       0.60169                       0.78871
                       0.14132                       0.60115                       0.78654
                       0.15795                       0.60103                       0.78346
                       0.17627                       0.60140                       0.77926
                       0.19296                       0.60205                       0.77479
                       0.20738                       0.60272                       0.77053
                       0.22282                       0.60340                       0.76568
                       0.23093                       0.60368                       0.76305
        </DataArray>
        <DataArray type="Float32" Name="Force" NumberOfComponents="3" format="ascii">
                      -0.53194                       7.38526                      -5.57413
                     173.87983                      78.12810                     -66.38324
                     238.36475                     221.69275                    -178.66284
                     224.37140                     327.81328                    -259.68243
                    1590.87175                    -320.15520                     151.92328
                    1655.56747                    -234.90683                      65.08810
                    1443.81254                    -141.78218                      -9.42046
                    1653.95609                    -113.31163                     -70.90347
                    2723.61363                    -154.80503                    -180.98769
                    3950.86965                    -183.85130                    -355.33581
                    7076.13095                    -290.08229                    -784.57015
                   11999.26241                    -524.05078                   -1522.08549
                   17546.22750                    -975.64667                   -2409.92575
                   24130.65638                   -1435.74647                   -3763.77532
                   28573.20258                   -1503.59757                   -5292.48668
                   27849.15025                    -693.34418                   -6365.82845
                   33368.32050                   -1750.60742                   -7552.24968
                   26789.79042                   -1948.60020                   -6190.71938
                   28142.49847                   -2090.36698                   -6773.20402
        </DataArray>
        <DataArray type="Float32" Name="Moment" NumberOfComponents="3" format="ascii">
                       0.00000                       0.00000                       0.00000
                       0.00000                       0.00000                       0.00000
                       0.00000                       0.00000                       0.00000
                       0.00000                       0.00000                       0.00000
                     -47.53793                    -630.41838                    -830.71513
                    -102.75519                   -1139.96968                   -1500.55866
                    -158.33445                   -1482.83686                   -1949.52510
                    -292.32458                   -2342.40487                   -3075.59422
                    -499.68381                   -3470.80814                   -4550.84599
                    -657.35643                   -4001.30465                   -5238.66285
                    -845.87769                   -4549.48855                   -5946.97014
                   -1056.88717                   -5051.93382                   -6592.53152
                   -1066.46413                   -4547.73803                   -5923.60030
                   -1275.66471                   -4864.32629                   -6323.08929
                   -1368.36828                   -4672.51940                   -6060.11449
                   -1473.97418                   -4595.36489                   -5947.81325
                   -1333.79414                   -3867.38814                   -4996.68225
                    -697.47295                   -1881.35254                   -2426.07511
                    -762.66996                   -1984.43730                   -2556.43206
        </DataArray>
      </PointData>
      <Lines>
        <DataArray type="Int32" Name="connectivity" format="ascii">
      0      1
      1      2
      2      3
      3      4
      4      5
      5      6
      6      7
      7      8
      8      9
      9     10
     10     11
     11     12
     12     13
     13     14
     14     15
     15     16
     16     17
     17     18
        </DataArray>
        <DataArray type="Int32" Name="offsets" format="ascii">
      2
      4
      6
      8
     10
     12
     14
     16
     18
     20
     22
     24
     26
     28
     30
     32
     34
     36
        </DataArray>
      </Lines>
    </Piece>
  </PolyData>
</VTKFile>
