<?xml version="1.0"?>
<VTKFile type="PolyData" version="0.1" byte_order="LittleEndian">
  <PolyData>
    <Piece NumberOfPoints="     19" NumberOfVerts="  0" NumberOfLines="     18"
           NumberOfStrips="  0" NumberOfPolys="      0">
      <Points>
        <DataArray type="Float32" NumberOfComponents="3" format="ascii">
                      -4.52827                       0.90947                      91.23118
                      -4.48447                       1.73425                      92.32040
                      -4.40863                       3.30698                      94.55785
                      -4.33306                       4.84205                      96.82412
                      -4.23002                       6.73615                      99.67556
                      -4.03830                       9.11833                     103.01098
                      -3.79825                      11.59748                     106.27044
                      -3.52279                      14.07085                     109.53198
                      -3.20362                      16.53946                     112.79365
                      -2.83538                      19.00120                     116.05582
                      -2.41339                      21.45238                     119.31986
                      -1.93137                      23.89291                     122.58398
                      -1.38488                      26.32093                     125.84762
                      -0.77031                      28.73377                     129.11058
                      -0.08265                      31.12712                     132.37311
                       0.54904                      33.10253                     135.09225
                       1.09247                      34.67436                     137.26372
                       1.67992                      36.27315                     139.40384
                       1.97656                      37.03381                     140.49975
        </DataArray>
      </Points>
      <PointData>
        <DataArray type="Float32" Name="TranslationalVelocity" NumberOfComponents="3" format="ascii">
                       0.33690                      -2.84709                       2.18382
                       0.51606                      -5.48403                       4.17904
                       0.75213                     -10.92631                       7.99249
                       0.83997                     -16.45364                      11.72344
                       0.77362                     -23.40105                      16.33480
                       0.58656                     -31.50437                      22.14136
                       0.44910                     -39.39018                      28.17190
                       0.52325                     -47.26387                      34.15750
                       0.98078                     -55.15430                      40.08825
                       1.93655                     -63.09738                      45.95471
                       3.40844                     -71.12230                      51.75473
                       5.28559                     -79.23513                      57.50942
                       7.28470                     -87.41723                      63.25262
                       8.91098                     -95.61537                      69.03708
                       9.41503                    -103.74084                      74.94291
                       8.18097                    -110.34251                      80.04325
                       5.64810                    -115.43133                      84.30622
                       1.47249                    -120.26461                      88.87643
                      -1.72103                    -122.56009                      91.17483
        </DataArray>
        <DataArray type="Float32" Name="RotationalVelocity" NumberOfComponents="3" format="ascii">
                       2.41072                      -0.00102                      -0.23045
                       2.41596                      -0.00955                      -0.22397
                       2.42077                      -0.04129                      -0.20941
                       2.42033                      -0.08175                      -0.19579
                       2.41601                      -0.12985                      -0.18734
                       2.40856                      -0.17100                      -0.20519
                       2.39997                      -0.19263                      -0.27355
                       2.38879                      -0.20687                      -0.41095
                       2.37125                      -0.23588                      -0.63220
                       2.34194                      -0.30870                      -0.94413
                       2.29446                      -0.45752                      -1.34266
                       2.22207                      -0.71412                      -1.80973
                       2.11831                      -1.10621                      -2.31012
                       1.97770                      -1.65386                      -2.78831
                       1.79638                      -2.36588                      -3.16539
                       1.61383                      -3.07788                      -3.33391
                       1.44634                      -3.72083                      -3.31371
                       1.26114                      -4.41573                      -3.10579
                       1.16251                      -4.77752                      -2.91586
        </DataArray>
        <DataArray type="Float32" Name="TranslationalAcceleration" NumberOfComponents="3" format="ascii">
                      -1.40034                      -7.34029                      -6.59210
                      -1.16197                      -8.10087                      -7.57944
                      -4.98791                     -23.00156                     -21.76324
                      -9.43331                     -35.59358                     -35.42521
                     -13.79921                     -47.56912                     -52.93531
                     -15.06513                     -57.70151                     -75.11978
                     -11.82832                     -64.98188                     -99.18184
                      -5.14436                     -71.44199                    -124.45889
                       2.44321                     -79.92036                    -149.12973
                       7.41372                     -92.72961                    -171.22238
                       5.75861                    -111.01522                    -189.22803
                      -6.90032                    -134.00505                    -202.74795
                     -34.78133                    -158.36852                    -213.04345
                     -81.61451                    -177.50358                    -223.61945
                    -150.26403                    -180.59289                    -240.92487
                    -225.79006                    -159.35315                    -267.69649
                    -298.68365                    -119.01395                    -302.31713
                    -389.02448                     -49.50826                    -353.12331
                    -432.42004                      -1.73018                    -387.26715
        </DataArray>
        <DataArray type="Float32" Name="OrientationX" NumberOfComponents="3" format="ascii">
                       0.98429                      -0.15738                       0.08006
                       0.98426                      -0.15783                       0.07953
                       0.98411                      -0.15951                       0.07801
                       0.98384                      -0.16211                       0.07596
                       0.98334                      -0.16650                       0.07288
                       0.98765                      -0.14862                       0.04964
                       0.98962                      -0.14011                       0.03190
                       0.99043                      -0.13701                       0.01668
                       0.99057                      -0.13699                       0.00209
                       0.98992                      -0.14118                      -0.01109
                       0.98823                      -0.15148                      -0.02150
                       0.98549                      -0.16709                      -0.02968
                       0.98140                      -0.18880                      -0.03477
                       0.97547                      -0.21722                      -0.03574
                       0.96843                      -0.24668                      -0.03607
                       0.96226                      -0.26963                      -0.03689
                       0.95757                      -0.28566                      -0.03824
                       0.95297                      -0.30057                      -0.03889
                       0.95071                      -0.30767                      -0.03870
        </DataArray>
        <DataArray type="Float32" Name="OrientationY" NumberOfComponents="3" format="ascii">
                       0.17363                       0.78018                      -0.60098
                       0.17366                       0.78019                      -0.60095
                       0.17408                       0.78022                      -0.60079
                       0.17493                       0.78025                      -0.60050
                       0.17658                       0.78023                      -0.60005
                       0.14837                       0.78512                      -0.60130
                       0.13096                       0.78811                      -0.60144
                       0.11943                       0.79016                      -0.60115
                       0.11076                       0.79175                      -0.60072
                       0.10633                       0.79271                      -0.60026
                       0.10846                       0.79271                      -0.59988
                       0.11619                       0.79179                      -0.59964
                       0.13065                       0.78957                      -0.59960
                       0.15292                       0.78543                      -0.59977
                       0.17644                       0.78039                      -0.59988
                       0.19448                       0.77613                      -0.59984
                       0.20667                       0.77307                      -0.59970
                       0.21837                       0.76993                      -0.59960
                       0.22422                       0.76826                      -0.59959
        </DataArray>
        <DataArray type="Float32" Name="OrientationZ" NumberOfComponents="3" format="ascii">
                       0.03212                       0.60544                       0.79524
                       0.03280                       0.60530                       0.79532
                       0.03497                       0.60482                       0.79559
                       0.03808                       0.60409                       0.79601
                       0.04304                       0.60292                       0.79664
                       0.05040                       0.60124                       0.79748
                       0.05912                       0.59938                       0.79828
                       0.06918                       0.59739                       0.79896
                       0.08063                       0.59529                       0.79945
                       0.09354                       0.59303                       0.79973
                       0.10792                       0.59048                       0.79980
                       0.12370                       0.58749                       0.79972
                       0.14065                       0.58390                       0.79955
                       0.15835                       0.57959                       0.79938
                       0.17612                       0.57457                       0.79928
                       0.19036                       0.57002                       0.79927
                       0.20088                       0.56635                       0.79931
                       0.21017                       0.56290                       0.79936
                       0.21421                       0.56135                       0.79937
        </DataArray>
        <DataArray type="Float32" Name="Force" NumberOfComponents="3" format="ascii">
                      -0.52823                       7.29449                      -5.53217
                     168.13107                      76.61841                     -65.27099
                     236.42141                     219.40107                    -177.48231
                     233.37651                     326.53113                    -259.93336
                    1981.58855                    -441.35223                     229.43823
                    2806.43506                    -508.61607                     210.84085
                    3526.72439                    -562.69961                     168.76209
                    4381.83970                    -627.19667                     100.33393
                    5465.25645                    -705.52682                     -11.10833
                    5206.64521                    -619.18526                    -134.87471
                    4658.80326                    -506.15714                    -241.50186
                    2393.97579                    -206.31221                    -213.29938
                   -1575.46054                     329.65785                      25.02407
                   -6161.04084                     986.79465                     471.46809
                  -10326.13682                    1691.79809                    1000.42555
                  -12410.10363                    2206.59467                    1301.86351
                  -12101.13144                    2376.74304                    1265.53682
                   -7948.65850                    1765.93012                     772.74626
                  -21590.36011                    3261.38797                    3414.90736
        </DataArray>
        <DataArray type="Float32" Name="Moment" NumberOfComponents="3" format="ascii">
                       0.00000                       0.00000                       0.00000
                       0.00000                       0.00000                       0.00000
                       0.00000                       0.00000                       0.00000
                       0.00000                       0.00000                       0.00000
                     -47.37252                    -668.72323                    -877.22799
                    -106.59546                   -1287.92077                   -1688.02191
                    -171.15429                   -1766.30522                   -2312.63591
                    -301.48081                   -2663.46974                   -3483.15657
                    -499.98264                   -3795.00564                   -4956.20021
                    -644.86497                   -4223.06138                   -5506.78325
                    -803.43476                   -4561.73800                   -5938.20769
                    -952.15344                   -4714.95585                   -6126.03436
                    -770.69621                   -3353.18071                   -4347.77914
                    -847.29220                   -3269.19326                   -4229.72306
                    -905.49714                   -3134.18773                   -4046.15265
                    -924.85903                   -2954.88998                   -3807.88917
                    -876.98848                   -2649.54040                   -3409.83846
                    -472.69215                   -1361.70952                   -1750.36059
                      21.64380                      61.09556                      78.49149
        </DataArray>
      </PointData>
      <Lines>
        <DataArray type="Int32" Name="connectivity" format="ascii">
      0      1
      1      2
      2      3
      3      4
      4      5
      5      6
      6      7
      7      8
      8      9
      9     10
     10     11
     11     12
     12     13
     13     14
     14     15
     15     16
     16     17
     17     18
        </DataArray>
        <DataArray type="Int32" Name="offsets" format="ascii">
      2
      4
      6
      8
     10
     12
     14
     16
     18
     20
     22
     24
     26
     28
     30
     32
     34
     36
        </DataArray>
      </Lines>
    </Piece>
  </PolyData>
</VTKFile>
