<?xml version="1.0"?>
<VTKFile type="PolyData" version="0.1" byte_order="LittleEndian">
  <PolyData>
    <Piece NumberOfPoints="     19" NumberOfVerts="  0" NumberOfLines="     18"
           NumberOfStrips="  0" NumberOfPolys="      0">
      <Points>
        <DataArray type="Float32" NumberOfComponents="3" format="ascii">
                      -4.55095                      -0.43664                      91.46663
                      -4.48815                      -0.84146                      92.77092
                      -4.38574                      -1.74185                      95.35235
                      -4.29176                      -2.68515                      97.92118
                      -4.17283                      -3.88941                     101.12542
                      -3.95287                      -5.19735                     105.00987
                      -3.67100                      -6.38018                     108.92977
                      -3.34369                      -7.56018                     112.84722
                      -2.95608                      -8.73689                     116.75993
                      -2.49858                      -9.91350                     120.66477
                      -1.96587                     -11.09472                     124.55860
                      -1.35546                     -12.27997                     128.44035
                      -0.67309                     -13.46933                     132.30991
                       0.06708                     -14.66190                     136.16880
                       0.84308                     -15.85600                     140.01995
                       1.49145                     -16.84971                     143.22771
                       1.99362                     -17.63439                     145.79820
                       2.47763                     -18.36374                     148.38708
                       2.68684                     -18.76427                     149.67522
        </DataArray>
      </Points>
      <PointData>
        <DataArray type="Float32" Name="TranslationalVelocity" NumberOfComponents="3" format="ascii">
                      -0.04585                      -3.45812                      -1.04078
                      -0.13466                      -6.60662                      -2.01231
                      -0.34539                     -12.82557                      -4.17558
                      -0.60001                     -19.00212                      -6.43976
                      -0.98174                     -26.69852                      -9.32453
                      -1.46808                     -36.05253                     -12.44987
                      -1.92314                     -45.54589                     -15.28391
                      -2.27344                     -55.12273                     -18.14884
                      -2.43580                     -64.81290                     -21.06754
                      -2.37556                     -74.62943                     -24.05963
                      -2.13805                     -84.56281                     -27.12748
                      -1.88246                     -94.57595                     -30.23011
                      -1.91358                    -104.59227                     -33.28954
                      -2.71325                    -114.48732                     -36.17786
                      -4.96928                    -124.07351                     -38.70542
                      -8.67758                    -131.63820                     -40.33501
                     -13.28721                    -137.29306                     -41.18183
                     -19.94932                    -142.46484                     -41.33310
                     -24.01661                    -144.84054                     -41.31108
        </DataArray>
        <DataArray type="Float32" Name="RotationalVelocity" NumberOfComponents="3" format="ascii">
                       2.40288                       0.00360                      -0.22728
                       2.40051                       0.00362                      -0.22760
                       2.39814                      -0.00664                      -0.22564
                       2.39819                      -0.02372                      -0.22175
                       2.40096                      -0.04455                      -0.21452
                       2.40907                      -0.05862                      -0.19802
                       2.42476                      -0.05693                      -0.16277
                       2.45105                      -0.04469                      -0.09542
                       2.49059                      -0.03486                       0.01836
                       2.54428                      -0.04731                       0.19071
                       2.61009                      -0.10745                       0.42899
                       2.68185                      -0.24498                       0.73313
                       2.74804                      -0.49266                       1.09294
                       2.79055                      -0.88502                       1.48539
                       2.78354                      -1.45708                       1.87201
                       2.71760                      -2.09066                       2.15210
                       2.60524                      -2.71974                       2.31630
                       2.42326                      -3.46633                       2.39740
                       2.30096                      -3.88575                       2.39720
        </DataArray>
        <DataArray type="Float32" Name="TranslationalAcceleration" NumberOfComponents="3" format="ascii">
                      -4.59418                       6.16685                      -8.41573
                      -1.88677                       7.65275                      -9.17077
                       1.89441                      24.37933                     -24.90669
                      13.07096                      40.09458                     -38.97518
                      32.66765                      55.60924                     -56.77255
                      56.82762                      65.26314                     -81.16446
                      74.48977                      65.11745                    -108.43441
                      79.60635                      58.19795                    -136.94505
                      68.27883                      48.53126                    -164.82268
                      39.02332                      40.70992                    -190.05959
                      -6.76893                      38.82881                    -211.11456
                     -64.55499                      45.47780                    -227.36943
                    -126.14753                      60.75018                    -239.75161
                    -179.26254                      81.27161                    -251.29948
                    -206.92593                      99.57741                    -267.65588
                    -193.75963                     103.29446                    -292.07110
                    -151.08030                      91.68995                    -323.25385
                     -79.73860                      61.44040                    -367.78940
                     -17.33536                      34.32916                    -399.83093
        </DataArray>
        <DataArray type="Float32" Name="OrientationX" NumberOfComponents="3" format="ascii">
                       0.96534                      -0.23250                      -0.11856
                       0.96533                      -0.23240                      -0.11889
                       0.96519                      -0.23242                      -0.11995
                       0.96495                      -0.23250                      -0.12176
                       0.96448                      -0.23251                      -0.12537
                       0.97138                      -0.20284                      -0.12361
                       0.97496                      -0.18209                      -0.12765
                       0.97669                      -0.16589                      -0.13626
                       0.97719                      -0.15184                      -0.14845
                       0.97619                      -0.14181                      -0.16412
                       0.97328                      -0.13866                      -0.18304
                       0.96867                      -0.14215                      -0.20363
                       0.96224                      -0.15400                      -0.22444
                       0.95384                      -0.17581                      -0.24346
                       0.94534                      -0.20173                      -0.25619
                       0.93942                      -0.22420                      -0.25929
                       0.93632                      -0.24168                      -0.25473
                       0.93453                      -0.26010                      -0.24290
                       0.93408                      -0.26980                      -0.23388
        </DataArray>
        <DataArray type="Float32" Name="OrientationY" NumberOfComponents="3" format="ascii">
                       0.25680                       0.92723                       0.27257
                       0.25680                       0.92722                       0.27260
                       0.25712                       0.92721                       0.27235
                       0.25770                       0.92722                       0.27176
                       0.25871                       0.92728                       0.27060
                       0.22979                       0.93425                       0.27270
                       0.21106                       0.93850                       0.27326
                       0.19799                       0.94141                       0.27303
                       0.18801                       0.94363                       0.27244
                       0.18288                       0.94497                       0.27127
                       0.18524                       0.94516                       0.26901
                       0.19440                       0.94429                       0.26556
                       0.21150                       0.94205                       0.26040
                       0.23743                       0.93789                       0.25295
                       0.26534                       0.93256                       0.24479
                       0.28721                       0.92772                       0.23842
                       0.30223                       0.92400                       0.23426
                       0.31612                       0.92020                       0.23089
                       0.32271                       0.91823                       0.22958
        </DataArray>
        <DataArray type="Float32" Name="OrientationZ" NumberOfComponents="3" format="ascii">
                       0.04655                      -0.29357                       0.95480
                       0.04688                      -0.29368                       0.95475
                       0.04792                      -0.29371                       0.95469
                       0.04972                      -0.29361                       0.95463
                       0.05333                      -0.29343                       0.95449
                       0.06017                      -0.29330                       0.95413
                       0.07005                      -0.29336                       0.95343
                       0.08298                      -0.29364                       0.95231
                       0.09871                      -0.29413                       0.95065
                       0.11662                      -0.29482                       0.94841
                       0.13570                      -0.29572                       0.94559
                       0.15454                      -0.29682                       0.94234
                       0.17133                      -0.29803                       0.93905
                       0.18387                      -0.29908                       0.93635
                       0.18953                      -0.29939                       0.93512
                       0.18710                      -0.29845                       0.93591
                       0.17876                      -0.29633                       0.93821
                       0.16346                      -0.29256                       0.94217
                       0.15281                      -0.28992                       0.94477
        </DataArray>
        <DataArray type="Float32" Name="Force" NumberOfComponents="3" format="ascii">
                       0.46787                      16.14687                       4.94187
                     185.15840                     102.95994                      22.56666
                     269.84194                     283.44508                      73.61718
                     270.95864                     411.55577                     112.46630
                    1754.73695                    -513.04103                    -255.93002
                    2287.48817                    -523.11715                    -305.36104
                    2632.71335                    -491.37728                    -344.89391
                    3126.99938                    -474.55555                    -418.91395
                    3957.18280                    -482.66813                    -559.98832
                    3686.82792                    -350.86497                    -561.78893
                    3417.57118                    -241.57079                    -565.08624
                    1590.21203                     -20.41859                    -266.95056
                   -1879.78626                     320.28084                     442.47495
                   -5933.40052                     690.53627                    1380.11914
                   -9402.94580                    1093.07476                    2248.23276
                  -10482.10313                    1406.71494                    2539.28437
                   -9050.77989                    1474.31151                    2191.84322
                   -4283.84313                     914.95633                    1033.83898
                  -20405.34516                    1854.09299                    3910.69506
        </DataArray>
        <DataArray type="Float32" Name="Moment" NumberOfComponents="3" format="ascii">
                       0.00000                       0.00000                       0.00000
                       0.00000                       0.00000                       0.00000
                       0.00000                       0.00000                       0.00000
                       0.00000                       0.00000                       0.00000
                     -59.36708                     326.79597                   -1062.13936
                    -125.40433                     612.05643                   -1987.93577
                    -196.58198                     824.46973                   -2675.22761
                    -355.15525                    1257.74146                   -4075.86918
                    -613.10152                    1825.26513                   -5905.75192
                    -814.04347                    2050.60426                   -6622.99163
                   -1044.79808                    2259.86913                   -7284.88841
                   -1244.78082                    2360.78191                   -7595.67328
                    -996.79481                    1702.01139                   -5466.71127
                   -1052.32125                    1671.02961                   -5360.22564
                   -1048.44348                    1612.36020                   -5168.89873
                    -982.08609                    1528.35522                   -4900.70665
                    -841.04001                    1369.13708                   -4393.83735
                    -391.78706                     697.00561                   -2240.27537
                      78.18192                    -148.69481                     478.43750
        </DataArray>
      </PointData>
      <Lines>
        <DataArray type="Int32" Name="connectivity" format="ascii">
      0      1
      1      2
      2      3
      3      4
      4      5
      5      6
      6      7
      7      8
      8      9
      9     10
     10     11
     11     12
     12     13
     13     14
     14     15
     15     16
     16     17
     17     18
        </DataArray>
        <DataArray type="Int32" Name="offsets" format="ascii">
      2
      4
      6
      8
     10
     12
     14
     16
     18
     20
     22
     24
     26
     28
     30
     32
     34
     36
        </DataArray>
      </Lines>
    </Piece>
  </PolyData>
</VTKFile>
