<?xml version="1.0"?>
<VTKFile type="PolyData" version="0.1" byte_order="LittleEndian">
  <PolyData>
    <Piece NumberOfPoints="     19" NumberOfVerts="  0" NumberOfLines="     18"
           NumberOfStrips="  0" NumberOfPolys="      0">
      <Points>
        <DataArray type="Float32" NumberOfComponents="3" format="ascii">
                      -4.81667                       0.15703                      88.55701
                      -5.00424                       0.31269                      87.21214
                      -5.39736                       0.71782                      84.53561
                      -5.79576                       1.16737                      81.86471
                      -6.29121                       1.75610                      78.52838
                      -6.81911                       2.32137                      74.49969
                      -7.30219                       2.75889                      70.45076
                      -7.75861                       3.19587                      66.39868
                      -8.17938                       3.63103                      62.34259
                      -8.55853                       4.06668                      58.28255
                      -8.89087                       4.50670                      54.21899
                      -9.16992                       4.94962                      50.15176
                      -9.39159                       5.39524                      46.08118
                      -9.55327                       5.84308                      42.00783
                      -9.65167                       6.29241                      37.93250
                      -9.68452                       6.66709                      34.53570
                      -9.68179                       6.95849                      31.81763
                      -9.65621                       7.19423                      29.09392
                      -9.63427                       7.35289                      27.73748
        </DataArray>
      </Points>
      <PointData>
        <DataArray type="Float32" Name="TranslationalVelocity" NumberOfComponents="3" format="ascii">
                      -0.05708                       1.27377                       0.13636
                      -0.04294                       2.44028                       0.26940
                      -0.00742                       4.76253                       0.61565
                       0.03037                       7.07891                       0.99981
                       0.07655                       9.96974                       1.50288
                       0.11474                      13.45106                       1.98597
                       0.13588                      16.94207                       2.36026
                       0.15086                      20.43016                       2.73432
                       0.16146                      23.91617                       3.10687
                       0.17063                      27.40060                       3.47963
                       0.18227                      30.88371                       3.85566
                       0.20051                      34.36607                       4.23355
                       0.23006                      37.84782                       4.61306
                       0.27599                      41.32870                       4.99387
                       0.34355                      44.80773                       5.37567
                       0.42069                      47.70435                       5.69427
                       0.49689                      50.01986                       5.94252
                       0.58381                      52.33777                       6.14408
                       0.63680                      53.49096                       6.28003
        </DataArray>
        <DataArray type="Float32" Name="RotationalVelocity" NumberOfComponents="3" format="ascii">
                       0.85629                      -0.00136                      -0.08088
                       0.85614                      -0.00126                      -0.08084
                       0.85570                      -0.00088                      -0.08074
                       0.85515                      -0.00026                      -0.08060
                       0.85436                       0.00078                      -0.08038
                       0.85340                       0.00228                      -0.08007
                       0.85251                       0.00380                      -0.07976
                       0.85178                       0.00510                      -0.07950
                       0.85125                       0.00590                      -0.07933
                       0.85095                       0.00596                      -0.07930
                       0.85087                       0.00504                      -0.07946
                       0.85096                       0.00299                      -0.07982
                       0.85119                      -0.00029                      -0.08040
                       0.85147                      -0.00480                      -0.08117
                       0.85171                      -0.01041                      -0.08209
                       0.85183                      -0.01574                      -0.08292
                       0.85180                      -0.02030                      -0.08357
                       0.85164                      -0.02495                      -0.08417
                       0.85150                      -0.02725                      -0.08444
        </DataArray>
        <DataArray type="Float32" Name="TranslationalAcceleration" NumberOfComponents="3" format="ascii">
                      -0.30745                       0.00395                       1.05149
                       0.01879                       0.02035                       1.32522
                       0.10571                       0.00239                       3.79838
                       0.23979                      -0.04408                       6.08621
                       0.44007                      -0.10897                       8.77190
                       0.68978                      -0.06313                      11.82900
                       0.91502                       0.10094                      14.80330
                       1.09637                       0.28709                      17.76945
                       1.23193                       0.49668                      20.76357
                       1.33384                       0.72826                      23.79644
                       1.42643                       0.97911                      26.86086
                       1.54437                       1.25029                      29.93884
                       1.73040                       1.54152                      33.00950
                       2.03319                       1.85235                      36.05631
                       2.50509                       2.18246                      39.07438
                       3.07068                       2.47172                      41.57684
                       3.65461                       2.71864                      43.58361
                       4.38124                       3.01538                      45.60989
                       4.79136                       3.13615                      46.64298
        </DataArray>
        <DataArray type="Float32" Name="OrientationX" NumberOfComponents="3" format="ascii">
                       0.96635                       0.23350                      -0.10787
                       0.96641                       0.23346                      -0.10748
                       0.96658                       0.23329                      -0.10626
                       0.96685                       0.23302                      -0.10445
                       0.96728                       0.23255                      -0.10144
                       0.97440                       0.20082                      -0.10103
                       0.97926                       0.17732                      -0.09801
                       0.98331                       0.15628                      -0.09315
                       0.98721                       0.13372                      -0.08684
                       0.99078                       0.11014                      -0.07893
                       0.99377                       0.08731                      -0.06920
                       0.99625                       0.06431                      -0.05792
                       0.99805                       0.04294                      -0.04520
                       0.99918                       0.02590                      -0.03127
                       0.99981                       0.00919                      -0.01747
                       0.99997                      -0.00453                      -0.00683
                       0.99989                      -0.01455                       0.00057
                       0.99977                      -0.02018                       0.00682
                       0.99974                      -0.02052                       0.00943
        </DataArray>
        <DataArray type="Float32" Name="OrientationY" NumberOfComponents="3" format="ascii">
                       0.21782                      -0.96595                      -0.13961
                       0.21784                      -0.96597                      -0.13949
                       0.21785                      -0.96601                      -0.13914
                       0.21785                      -0.96608                      -0.13870
                       0.21780                      -0.96618                      -0.13805
                       0.18669                      -0.97324                      -0.13399
                       0.16395                      -0.97775                      -0.13090
                       0.14381                      -0.98126                      -0.12823
                       0.12231                      -0.98451                      -0.12563
                       0.09994                      -0.98734                      -0.12320
                       0.07850                      -0.98952                      -0.12117
                       0.05703                      -0.99120                      -0.11949
                       0.03733                      -0.99228                      -0.11830
                       0.02206                      -0.99281                      -0.11764
                       0.00708                      -0.99308                      -0.11723
                      -0.00530                      -0.99311                      -0.11705
                      -0.01438                      -0.99303                      -0.11696
                      -0.01925                      -0.99297                      -0.11683
                      -0.01928                      -0.99298                      -0.11671
        </DataArray>
        <DataArray type="Float32" Name="OrientationZ" NumberOfComponents="3" format="ascii">
                      -0.13680                       0.11142                      -0.98431
                      -0.13639                       0.11139                      -0.98437
                      -0.13511                       0.11134                      -0.98455
                      -0.13323                       0.11135                      -0.98481
                      -0.13011                       0.11144                      -0.98522
                      -0.12523                       0.11170                      -0.98582
                      -0.11905                       0.11212                      -0.98654
                      -0.11145                       0.11270                      -0.98736
                      -0.10229                       0.11340                      -0.98827
                      -0.09150                       0.11418                      -0.98924
                      -0.07906                       0.11498                      -0.99022
                      -0.06510                       0.11574                      -0.99114
                      -0.04993                       0.11639                      -0.99195
                      -0.03410                       0.11685                      -0.99256
                      -0.01843                       0.11709                      -0.99295
                      -0.00625                       0.11708                      -0.99310
                       0.00227                       0.11694                      -0.99314
                       0.00913                       0.11667                      -0.99313
                       0.01176                       0.11649                      -0.99312
        </DataArray>
        <DataArray type="Float32" Name="Force" NumberOfComponents="3" format="ascii">
                      -0.01390                      -1.31988                      -0.14747
                     117.44584                     -24.05871                     -18.99609
                     139.49556                     -57.54049                     -25.65509
                     117.25050                     -72.79480                     -24.09910
                    1076.81343                     388.79723                     -98.22609
                    1222.60101                     432.76211                    -106.37696
                    1553.95819                     551.45332                    -125.19556
                    1696.10528                     560.64235                    -128.12731
                    1959.40961                     602.72783                    -134.80651
                    2371.29852                     662.52457                    -144.66126
                    2786.38139                     719.07571                    -141.52543
                    3280.12822                     742.26662                    -132.02764
                    3760.46078                     774.37170                    -102.44078
                    4019.98487                     725.55973                     -56.92950
                    4207.94456                     658.72651                      -4.59421
                    4281.76693                     581.79625                      37.79361
                    4126.53897                     485.56598                      63.35152
                    2943.49512                     295.84237                      59.84936
                    1222.15465                     -27.07264                      11.34713
        </DataArray>
        <DataArray type="Float32" Name="Moment" NumberOfComponents="3" format="ascii">
                       0.00000                       0.00000                       0.00000
                       0.00000                       0.00000                       0.00000
                       0.00000                       0.00000                       0.00000
                       0.00000                       0.00000                       0.00000
                      61.45163                     -52.63763                     465.32007
                      68.28519                     -60.77944                     537.54598
                      60.99384                     -57.11934                     505.47504
                      62.26327                     -62.29197                     551.65096
                      65.08840                     -70.94715                     628.84959
                      67.83226                     -82.65411                     733.36956
                      63.78501                     -89.93116                     798.88154
                      57.95226                     -99.17833                     882.19465
                      48.44234                    -107.98854                     961.94348
                      33.06250                    -107.75625                     961.31430
                      17.37904                    -104.50534                     933.69674
                       5.65995                     -99.42721                     889.35163
                      -1.74840                     -88.46549                     791.94127
                      -3.67613                     -45.03412                     403.40722
                      -4.27204                     -40.55424                     363.36791
        </DataArray>
      </PointData>
      <Lines>
        <DataArray type="Int32" Name="connectivity" format="ascii">
      0      1
      1      2
      2      3
      3      4
      4      5
      5      6
      6      7
      7      8
      8      9
      9     10
     10     11
     11     12
     12     13
     13     14
     14     15
     15     16
     16     17
     17     18
        </DataArray>
        <DataArray type="Int32" Name="offsets" format="ascii">
      2
      4
      6
      8
     10
     12
     14
     16
     18
     20
     22
     24
     26
     28
     30
     32
     34
     36
        </DataArray>
      </Lines>
    </Piece>
  </PolyData>
</VTKFile>
