<?xml version="1.0"?>
<VTKFile type="PolyData" version="0.1" byte_order="LittleEndian">
  <PolyData>
    <Piece NumberOfPoints="     22" NumberOfVerts="  0" NumberOfLines="     21"
           NumberOfStrips="  0" NumberOfPolys="      0">
      <Points>
        <DataArray type="Float32" NumberOfComponents="3" format="ascii">
                       0.00020                       0.00001                       2.19000
                       0.00200                       0.00012                       6.57000
                       0.00595                       0.00031                      10.95000
                       0.01219                       0.00055                      15.32999
                       0.02074                       0.00084                      19.70998
                       0.03151                       0.00114                      24.08997
                       0.04437                       0.00143                      28.46995
                       0.05921                       0.00168                      32.84993
                       0.07593                       0.00187                      37.22989
                       0.09447                       0.00197                      41.60986
                       0.11484                       0.00194                      45.98981
                       0.13708                       0.00176                      50.36975
                       0.16125                       0.00138                      54.74968
                       0.18740                       0.00079                      59.12961
                       0.21557                      -0.00005                      63.50952
                       0.24566                      -0.00114                      67.88941
                       0.27745                      -0.00250                      72.26930
                       0.31047                      -0.00412                      76.64917
                       0.34396                      -0.00596                      81.02904
                       0.37671                      -0.00798                      85.40892
                       0.39231                      -0.00904                      87.59886
                       0.00000                       0.00000                       0.00000
        </DataArray>
      </Points>
      <PointData>
        <DataArray type="Float32" Name="TranslationalVelocity" NumberOfComponents="3" format="ascii">
                       0.00019                      -0.00029                      -0.00000
                       0.00173                      -0.00247                      -0.00000
                       0.00477                      -0.00643                      -0.00000
                       0.00919                      -0.01185                      -0.00001
                       0.01470                      -0.01846                      -0.00002
                       0.02097                      -0.02602                      -0.00003
                       0.02755                      -0.03430                      -0.00005
                       0.03396                      -0.04307                      -0.00007
                       0.03969                      -0.05208                      -0.00010
                       0.04422                      -0.06107                      -0.00011
                       0.04702                      -0.06974                      -0.00013
                       0.04762                      -0.07779                      -0.00013
                       0.04559                      -0.08490                      -0.00012
                       0.04059                      -0.09079                      -0.00009
                       0.03237                      -0.09517                      -0.00004
                       0.02083                      -0.09784                       0.00004
                       0.00601                      -0.09865                       0.00015
                      -0.01188                      -0.09760                       0.00028
                      -0.03239                      -0.09484                       0.00044
                      -0.05488                      -0.09073                       0.00061
                      -0.06658                      -0.08835                       0.00070
                       0.00000                      -0.00000                       0.00000
        </DataArray>
        <DataArray type="Float32" Name="RotationalVelocity" NumberOfComponents="3" format="ascii">
                       0.00026                       0.00017                       0.00000
                       0.00071                       0.00053                       0.00000
                       0.00108                       0.00086                       0.00000
                       0.00138                       0.00115                       0.00000
                       0.00163                       0.00136                       0.00000
                       0.00182                       0.00148                       0.00000
                       0.00196                       0.00150                       0.00000
                       0.00204                       0.00141                       0.00000
                       0.00207                       0.00119                       0.00000
                       0.00203                       0.00086                       0.00000
                       0.00192                       0.00041                       0.00000
                       0.00174                      -0.00015                       0.00000
                       0.00150                      -0.00079                       0.00000
                       0.00118                      -0.00150                       0.00000
                       0.00081                      -0.00225                       0.00000
                       0.00040                      -0.00301                       0.00000
                      -0.00003                      -0.00375                       0.00000
                      -0.00044                      -0.00440                       0.00000
                      -0.00080                      -0.00494                       0.00000
                      -0.00105                      -0.00529                       0.00000
                      -0.00112                      -0.00538                       0.00000
                       0.00000                      -0.00000                       0.00000
        </DataArray>
        <DataArray type="Float32" Name="TranslationalAcceleration" NumberOfComponents="3" format="ascii">
                       0.00028                      -0.00641                      -0.00000
                       0.00252                      -0.05374                      -0.00000
                       0.00686                      -0.13950                      -0.00001
                       0.01298                      -0.25611                      -0.00002
                       0.02040                      -0.39706                      -0.00004
                       0.02850                      -0.55639                      -0.00008
                       0.03655                      -0.72821                      -0.00011
                       0.04370                      -0.90639                      -0.00015
                       0.04904                      -1.08436                      -0.00019
                       0.05164                      -1.25500                      -0.00022
                       0.05057                      -1.41073                      -0.00023
                       0.04494                      -1.54364                      -0.00023
                       0.03395                      -1.64577                      -0.00019
                       0.01697                      -1.70954                      -0.00011
                      -0.00644                      -1.72830                       0.00002
                      -0.03647                      -1.69691                       0.00021
                      -0.07297                      -1.61260                       0.00045
                      -0.11539                      -1.47583                       0.00074
                      -0.16271                      -1.29130                       0.00108
                      -0.21339                      -1.06910                       0.00144
                      -0.23933                      -0.94885                       0.00162
                       0.00000                      -0.00000                       0.00000
        </DataArray>
        <DataArray type="Float32" Name="RotationalAcceleration" NumberOfComponents="3" format="ascii">
                       0.00575                       0.00026                       0.00000
                       0.01551                       0.00076                       0.00000
                       0.02337                       0.00121                       0.00000
                       0.02963                       0.00157                       0.00000
                       0.03450                       0.00180                       0.00000
                       0.03803                       0.00187                       0.00000
                       0.04020                       0.00177                       0.00000
                       0.04092                       0.00146                       0.00000
                       0.04008                       0.00094                       0.00000
                       0.03755                       0.00021                       0.00000
                       0.03325                      -0.00073                       0.00000
                       0.02713                      -0.00187                       0.00000
                       0.01921                      -0.00317                       0.00000
                       0.00965                      -0.00460                       0.00000
                      -0.00129                      -0.00610                       0.00000
                      -0.01316                      -0.00761                       0.00000
                      -0.02533                      -0.00904                       0.00000
                      -0.03695                      -0.01029                       0.00000
                      -0.04693                      -0.01126                       0.00000
                      -0.05389                      -0.01180                       0.00000
                      -0.05573                      -0.01186                       0.00000
                       0.00000                      -0.00000                       0.00000
        </DataArray>
        <DataArray type="Float32" Name="OrientationX" NumberOfComponents="3" format="ascii">
                       1.00000                      -0.00000                      -0.00019
                       1.00000                      -0.00000                      -0.00065
                       1.00000                      -0.00000                      -0.00116
                       1.00000                      -0.00000                      -0.00169
                       1.00000                      -0.00000                      -0.00221
                       1.00000                      -0.00000                      -0.00270
                       0.99999                      -0.00000                      -0.00317
                       0.99999                      -0.00000                      -0.00360
                       0.99999                      -0.00000                      -0.00403
                       0.99999                      -0.00000                      -0.00444
                       0.99999                       0.00000                      -0.00486
                       0.99999                       0.00000                      -0.00529
                       0.99998                       0.00000                      -0.00574
                       0.99998                       0.00000                      -0.00620
                       0.99998                       0.00000                      -0.00666
                       0.99997                       0.00000                      -0.00708
                       0.99997                       0.00000                      -0.00742
                       0.99997                       0.00000                      -0.00763
                       0.99997                       0.00000                      -0.00762
                       0.99997                       0.00000                      -0.00728
                       0.99998                       0.00000                      -0.00695
                       1.00000                      -0.00000                       0.00000
        </DataArray>
        <DataArray type="Float32" Name="OrientationY" NumberOfComponents="3" format="ascii">
                      -0.00000                       1.00000                      -0.00001
                      -0.00000                       1.00000                      -0.00003
                      -0.00000                       1.00000                      -0.00005
                      -0.00000                       1.00000                      -0.00006
                      -0.00000                       1.00000                      -0.00007
                      -0.00000                       1.00000                      -0.00007
                      -0.00000                       1.00000                      -0.00006
                      -0.00000                       1.00000                      -0.00005
                      -0.00000                       1.00000                      -0.00003
                      -0.00000                       1.00000                      -0.00001
                       0.00000                       1.00000                       0.00002
                       0.00000                       1.00000                       0.00006
                       0.00000                       1.00000                       0.00011
                       0.00000                       1.00000                       0.00016
                       0.00000                       1.00000                       0.00022
                       0.00000                       1.00000                       0.00028
                       0.00000                       1.00000                       0.00034
                       0.00000                       1.00000                       0.00040
                       0.00000                       1.00000                       0.00044
                       0.00000                       1.00000                       0.00048
                       0.00000                       1.00000                       0.00049
                      -0.00000                       1.00000                      -0.00000
        </DataArray>
        <DataArray type="Float32" Name="OrientationZ" NumberOfComponents="3" format="ascii">
                       0.00019                       0.00001                       1.00000
                       0.00065                       0.00003                       1.00000
                       0.00116                       0.00005                       1.00000
                       0.00169                       0.00006                       1.00000
                       0.00221                       0.00007                       1.00000
                       0.00270                       0.00007                       1.00000
                       0.00317                       0.00006                       0.99999
                       0.00360                       0.00005                       0.99999
                       0.00403                       0.00003                       0.99999
                       0.00444                       0.00001                       0.99999
                       0.00486                      -0.00002                       0.99999
                       0.00529                      -0.00006                       0.99999
                       0.00574                      -0.00011                       0.99998
                       0.00620                      -0.00016                       0.99998
                       0.00666                      -0.00022                       0.99998
                       0.00708                      -0.00028                       0.99997
                       0.00742                      -0.00034                       0.99997
                       0.00763                      -0.00040                       0.99997
                       0.00762                      -0.00044                       0.99997
                       0.00728                      -0.00048                       0.99997
                       0.00695                      -0.00049                       0.99998
                       0.00000                      -0.00000                       1.00000
        </DataArray>
      </PointData>
      <Lines>
        <DataArray type="Int32" Name="connectivity" format="ascii">
      0      1
      1      2
      2      3
      3      4
      4      5
      5      6
      6      7
      7      8
      8      9
      9     10
     10     11
     11     12
     12     13
     13     14
     14     15
     15     16
     16     17
     17     18
     18     19
     19     20
     21      0
        </DataArray>
        <DataArray type="Int32" Name="offsets" format="ascii">
      2
      4
      6
      8
     10
     12
     14
     16
     18
     20
     22
     24
     26
     28
     30
     32
     34
     36
     38
     40
     42
        </DataArray>
      </Lines>
    </Piece>
  </PolyData>
</VTKFile>
